﻿<?xml version="1.0" encoding="UTF-8"?>
<TestRun id="962b6cbc-a98d-456f-9d8c-23ad6eae5a03" name="Admin@DEVELOPMENT 2016-02-27 21:22:57" runUser="DEVELOPMENT\Admin" xmlns="http://microsoft.com/schemas/VisualStudio/TeamTest/2010">
  <TestSettings name="Local" id="1d6239b9-3725-4107-9802-b3e02f79ef3e">
    <Description>These are default test settings for a local test run.</Description>
    <Deployment userDeploymentRoot="C:\WpfFootballExercise\TestResults" useDefaultDeploymentRoot="false" enabled="false" runDeploymentRoot="Admin_DEVELOPMENT 2016-02-27 21_22_57">
      <DeploymentItem filename="C:\WpfFootballExercise\WpfFootballExercise\bin\Release\WpfFootballExercise.exe" />
    </Deployment>
    <Execution>
      <TestTypeSpecific />
      <AgentRule name="Execution Agents">
      </AgentRule>
    </Execution>
  </TestSettings>
  <Times creation="2016-02-27T21:22:57.7031250-08:00" queuing="2016-02-27T21:22:59.0468750-08:00" start="2016-02-27T21:22:59.2500000-08:00" finish="2016-02-27T21:23:43.6718750-08:00" />
  <ResultSummary outcome="Error">
    <Counters total="2" executed="2" passed="1" error="0" failed="0" timeout="0" aborted="1" inconclusive="0" passedButRunAborted="0" notRunnable="0" notExecuted="0" disconnected="0" warning="0" completed="0" inProgress="0" pending="0" />
    <RunInfos>
      <RunInfo computerName="DEVELOPMENT" outcome="Error" timestamp="2016-02-27T21:23:43.6718750-08:00">
        <Text>Test host process exited unexpectedly.</Text>
      </RunInfo>
    </RunInfos>
  </ResultSummary>
  <TestDefinitions>
    <UnitTest name="InitializeComponentTest" storage="c:\wpffootballexercise\wpffootballexercise_testproject\bin\release\wpffootballexercise_testproject.dll" id="a43d1f53-7027-f6d8-4a6b-8f3c9a0093d0">
      <Execution id="7c787a45-aa41-4dc2-b542-ae3ed6346472" />
      <TestMethod codeBase="C:/WpfFootballExercise/WpfFootballExercise_TestProject/bin/Release/WpfFootballExercise_TestProject.DLL" adapterTypeName="Microsoft.VisualStudio.TestTools.TestTypes.Unit.UnitTestAdapter, Microsoft.VisualStudio.QualityTools.Tips.UnitTest.Adapter, Version=10.0.0.0, Culture=neutral, PublicKeyToken=b03f5f7f11d50a3a" className="WpfFootballExercise_TestProject.AppTest, WpfFootballExercise_TestProject, Version=1.0.0.0, Culture=neutral, PublicKeyToken=null" name="InitializeComponentTest" />
    </UnitTest>
    <UnitTest name="AppConstructorTest" storage="c:\wpffootballexercise\wpffootballexercise_testproject\bin\release\wpffootballexercise_testproject.dll" id="799f2608-69b6-7bce-689e-e97e25033d5f">
      <Execution id="629066dc-e128-4dfe-a62a-4cf21e368650" />
      <TestMethod codeBase="C:/WpfFootballExercise/WpfFootballExercise_TestProject/bin/Release/WpfFootballExercise_TestProject.DLL" adapterTypeName="Microsoft.VisualStudio.TestTools.TestTypes.Unit.UnitTestAdapter, Microsoft.VisualStudio.QualityTools.Tips.UnitTest.Adapter, Version=10.0.0.0, Culture=neutral, PublicKeyToken=b03f5f7f11d50a3a" className="WpfFootballExercise_TestProject.AppTest, WpfFootballExercise_TestProject, Version=1.0.0.0, Culture=neutral, PublicKeyToken=null" name="AppConstructorTest" />
    </UnitTest>
  </TestDefinitions>
  <TestLists>
    <TestList name="Results Not in a List" id="8c84fa94-04c1-424b-9868-57a2d4851a1d" />
    <TestList name="All Loaded Results" id="19431567-8539-422a-85d7-44ee4e166bda" />
  </TestLists>
  <TestEntries>
    <TestEntry testId="799f2608-69b6-7bce-689e-e97e25033d5f" executionId="629066dc-e128-4dfe-a62a-4cf21e368650" testListId="8c84fa94-04c1-424b-9868-57a2d4851a1d" />
    <TestEntry testId="a43d1f53-7027-f6d8-4a6b-8f3c9a0093d0" executionId="7c787a45-aa41-4dc2-b542-ae3ed6346472" testListId="8c84fa94-04c1-424b-9868-57a2d4851a1d" />
  </TestEntries>
  <Results>
    <UnitTestResult executionId="629066dc-e128-4dfe-a62a-4cf21e368650" testId="799f2608-69b6-7bce-689e-e97e25033d5f" testName="AppConstructorTest" computerName="DEVELOPMENT" duration="00:00:14.2149491" startTime="2016-02-27T21:22:59.4687500-08:00" endTime="2016-02-27T21:23:14.9062500-08:00" testType="13cdc9d9-ddb5-4fa4-a97d-d965ccfc6d4b" outcome="Passed" testListId="8c84fa94-04c1-424b-9868-57a2d4851a1d" relativeResultsDirectory="629066dc-e128-4dfe-a62a-4cf21e368650">
    </UnitTestResult>
    <UnitTestResult executionId="7c787a45-aa41-4dc2-b542-ae3ed6346472" testId="a43d1f53-7027-f6d8-4a6b-8f3c9a0093d0" testName="InitializeComponentTest" computerName="DEVELOPMENT" duration="00:00:28.7500000" startTime="2016-02-27T21:23:14.9218750-08:00" endTime="2016-02-27T21:23:43.6718750-08:00" testType="13cdc9d9-ddb5-4fa4-a97d-d965ccfc6d4b" outcome="Aborted" testListId="8c84fa94-04c1-424b-9868-57a2d4851a1d" relativeResultsDirectory="7c787a45-aa41-4dc2-b542-ae3ed6346472">
    </UnitTestResult>
  </Results>
</TestRun>