﻿<?xml version="1.0" encoding="UTF-8"?>
<TestRun id="4a359c1a-7d78-42f2-9716-6dbf3b40225a" name="Admin@DEVELOPMENT 2016-02-27 21:30:59" runUser="DEVELOPMENT\Admin" xmlns="http://microsoft.com/schemas/VisualStudio/TeamTest/2010">
  <TestSettings name="Local" id="1d6239b9-3725-4107-9802-b3e02f79ef3e">
    <Description>These are default test settings for a local test run.</Description>
    <Deployment userDeploymentRoot="C:\WpfFootballExercise\TestResults" useDefaultDeploymentRoot="false" enabled="false" runDeploymentRoot="Admin_DEVELOPMENT 2016-02-27 21_30_59">
      <DeploymentItem filename="C:\WpfFootballExercise\WpfFootballExercise\bin\Release\WpfFootballExercise.exe" />
    </Deployment>
    <Execution>
      <TestTypeSpecific />
      <AgentRule name="Execution Agents">
      </AgentRule>
    </Execution>
  </TestSettings>
  <Times creation="2016-02-27T21:30:59.7500000-08:00" queuing="2016-02-27T21:31:01.0000000-08:00" start="2016-02-27T21:31:01.2187500-08:00" finish="2016-02-27T21:31:07.0312500-08:00" />
  <ResultSummary outcome="Completed">
    <Counters total="12" executed="12" passed="12" error="0" failed="0" timeout="0" aborted="0" inconclusive="0" passedButRunAborted="0" notRunnable="0" notExecuted="0" disconnected="0" warning="0" completed="0" inProgress="0" pending="0" />
  </ResultSummary>
  <TestDefinitions>
    <UnitTest name="InitializeComponentTest" storage="c:\wpffootballexercise\wpffootballexercise_testproject\bin\release\wpffootballexercise_testproject.dll" id="a43d1f53-7027-f6d8-4a6b-8f3c9a0093d0">
      <Execution id="7198dc16-1027-4353-adcf-9e1533d2287f" />
      <TestMethod codeBase="C:/WpfFootballExercise/WpfFootballExercise_TestProject/bin/Release/WpfFootballExercise_TestProject.DLL" adapterTypeName="Microsoft.VisualStudio.TestTools.TestTypes.Unit.UnitTestAdapter, Microsoft.VisualStudio.QualityTools.Tips.UnitTest.Adapter, Version=10.0.0.0, Culture=neutral, PublicKeyToken=b03f5f7f11d50a3a" className="WpfFootballExercise_TestProject.AppTest, WpfFootballExercise_TestProject, Version=1.0.0.0, Culture=neutral, PublicKeyToken=null" name="InitializeComponentTest" />
    </UnitTest>
    <UnitTest name="IsOpenPropertyTest" storage="c:\wpffootballexercise\wpffootballexercise_testproject\bin\release\wpffootballexercise_testproject.dll" id="cc86a5cd-42a8-b592-0036-a3731d20e030">
      <Execution id="2d40dee9-451e-452e-b803-26a706ece503" />
      <TestMethod codeBase="C:/WpfFootballExercise/WpfFootballExercise_TestProject/bin/Release/WpfFootballExercise_TestProject.DLL" adapterTypeName="Microsoft.VisualStudio.TestTools.TestTypes.Unit.UnitTestAdapter, Microsoft.VisualStudio.QualityTools.Tips.UnitTest.Adapter, Version=10.0.0.0, Culture=neutral, PublicKeyToken=b03f5f7f11d50a3a" className="WpfFootballExercise_TestProject.FootballExerciseViewModelTest, WpfFootballExercise_TestProject, Version=1.0.0.0, Culture=neutral, PublicKeyToken=null" name="IsOpenPropertyTest" />
    </UnitTest>
    <UnitTest name="FootballExerciseViewModelConstructorTest" storage="c:\wpffootballexercise\wpffootballexercise_testproject\bin\release\wpffootballexercise_testproject.dll" id="a6e177b9-cbef-4dfd-838b-bf97d961f6f2">
      <Execution id="bef9129f-f7e4-469a-b933-6907345312d5" />
      <TestMethod codeBase="C:/WpfFootballExercise/WpfFootballExercise_TestProject/bin/Release/WpfFootballExercise_TestProject.DLL" adapterTypeName="Microsoft.VisualStudio.TestTools.TestTypes.Unit.UnitTestAdapter, Microsoft.VisualStudio.QualityTools.Tips.UnitTest.Adapter, Version=10.0.0.0, Culture=neutral, PublicKeyToken=b03f5f7f11d50a3a" className="WpfFootballExercise_TestProject.FootballExerciseViewModelTest, WpfFootballExercise_TestProject, Version=1.0.0.0, Culture=neutral, PublicKeyToken=null" name="FootballExerciseViewModelConstructorTest" />
    </UnitTest>
    <UnitTest name="RepositoryConstructorTest" storage="c:\wpffootballexercise\wpffootballexercise_testproject\bin\release\wpffootballexercise_testproject.dll" id="b5bfeebf-ac24-dcdc-8fce-2cae040ddc1d">
      <Execution id="c0f8e8d4-02db-4fe5-af8e-78fbed53f85a" />
      <TestMethod codeBase="C:/WpfFootballExercise/WpfFootballExercise_TestProject/bin/Release/WpfFootballExercise_TestProject.DLL" adapterTypeName="Microsoft.VisualStudio.TestTools.TestTypes.Unit.UnitTestAdapter, Microsoft.VisualStudio.QualityTools.Tips.UnitTest.Adapter, Version=10.0.0.0, Culture=neutral, PublicKeyToken=b03f5f7f11d50a3a" className="WpfFootballExercise_TestProject.RepositoryTest, WpfFootballExercise_TestProject, Version=1.0.0.0, Culture=neutral, PublicKeyToken=null" name="RepositoryConstructorTest" />
    </UnitTest>
    <UnitTest name="InitializeComponentTest" storage="c:\wpffootballexercise\wpffootballexercise_testproject\bin\release\wpffootballexercise_testproject.dll" id="b708243d-5ab6-27ce-3048-8917d087e2a9">
      <Execution id="3e495fbd-7de7-47ee-9045-8e06de4a2c3b" />
      <TestMethod codeBase="C:/WpfFootballExercise/WpfFootballExercise_TestProject/bin/Release/WpfFootballExercise_TestProject.DLL" adapterTypeName="Microsoft.VisualStudio.TestTools.TestTypes.Unit.UnitTestAdapter, Microsoft.VisualStudio.QualityTools.Tips.UnitTest.Adapter, Version=10.0.0.0, Culture=neutral, PublicKeyToken=b03f5f7f11d50a3a" className="WpfFootballExercise_TestProject.wpfFootBallExerciseTest, WpfFootballExercise_TestProject, Version=1.0.0.0, Culture=neutral, PublicKeyToken=null" name="InitializeComponentTest" />
    </UnitTest>
    <UnitTest name="CultureTest" storage="c:\wpffootballexercise\wpffootballexercise_testproject\bin\release\wpffootballexercise_testproject.dll" id="a895df82-463a-a2b6-ad8b-a274c9067848">
      <Execution id="c168ccd7-8b59-49f1-b285-745023ab3806" />
      <TestMethod codeBase="C:/WpfFootballExercise/WpfFootballExercise_TestProject/bin/Release/WpfFootballExercise_TestProject.DLL" adapterTypeName="Microsoft.VisualStudio.TestTools.TestTypes.Unit.UnitTestAdapter, Microsoft.VisualStudio.QualityTools.Tips.UnitTest.Adapter, Version=10.0.0.0, Culture=neutral, PublicKeyToken=b03f5f7f11d50a3a" className="WpfFootballExercise_TestProject.ResourcesTest, WpfFootballExercise_TestProject, Version=1.0.0.0, Culture=neutral, PublicKeyToken=null" name="CultureTest" />
    </UnitTest>
    <UnitTest name="GoalScoredForPropertyTest" storage="c:\wpffootballexercise\wpffootballexercise_testproject\bin\release\wpffootballexercise_testproject.dll" id="c6f01cab-5280-79a0-ebb0-29985c551eea">
      <Execution id="ea797a0f-6d93-40d1-aac2-21086309127e" />
      <TestMethod codeBase="C:/WpfFootballExercise/WpfFootballExercise_TestProject/bin/Release/WpfFootballExercise_TestProject.DLL" adapterTypeName="Microsoft.VisualStudio.TestTools.TestTypes.Unit.UnitTestAdapter, Microsoft.VisualStudio.QualityTools.Tips.UnitTest.Adapter, Version=10.0.0.0, Culture=neutral, PublicKeyToken=b03f5f7f11d50a3a" className="WpfFootballExercise_TestProject.FootballExerciseViewModelTest, WpfFootballExercise_TestProject, Version=1.0.0.0, Culture=neutral, PublicKeyToken=null" name="GoalScoredForPropertyTest" />
    </UnitTest>
    <UnitTest name="DifferencePropertyTest" storage="c:\wpffootballexercise\wpffootballexercise_testproject\bin\release\wpffootballexercise_testproject.dll" id="fae19a73-99bd-53ac-f99f-381b85d84bbe">
      <Execution id="0e0c364f-da45-4ff9-831b-a12bddaaa8e6" />
      <TestMethod codeBase="C:/WpfFootballExercise/WpfFootballExercise_TestProject/bin/Release/WpfFootballExercise_TestProject.DLL" adapterTypeName="Microsoft.VisualStudio.TestTools.TestTypes.Unit.UnitTestAdapter, Microsoft.VisualStudio.QualityTools.Tips.UnitTest.Adapter, Version=10.0.0.0, Culture=neutral, PublicKeyToken=b03f5f7f11d50a3a" className="WpfFootballExercise_TestProject.FootballExerciseViewModelTest, WpfFootballExercise_TestProject, Version=1.0.0.0, Culture=neutral, PublicKeyToken=null" name="DifferencePropertyTest" />
    </UnitTest>
    <UnitTest name="GoalsScoredForTest" storage="c:\wpffootballexercise\wpffootballexercise_testproject\bin\release\wpffootballexercise_testproject.dll" id="7c9a03ac-d198-e8dd-f833-b9d3a55858dd">
      <Execution id="1dcccfc9-256b-4df4-b241-7223a534a65b" />
      <TestMethod codeBase="C:/WpfFootballExercise/WpfFootballExercise_TestProject/bin/Release/WpfFootballExercise_TestProject.DLL" adapterTypeName="Microsoft.VisualStudio.TestTools.TestTypes.Unit.UnitTestAdapter, Microsoft.VisualStudio.QualityTools.Tips.UnitTest.Adapter, Version=10.0.0.0, Culture=neutral, PublicKeyToken=b03f5f7f11d50a3a" className="WpfFootballExercise_TestProject.FootBallModelTest, WpfFootballExercise_TestProject, Version=1.0.0.0, Culture=neutral, PublicKeyToken=null" name="GoalsScoredForTest" />
    </UnitTest>
    <UnitTest name="FootBallModelConstructorTest" storage="c:\wpffootballexercise\wpffootballexercise_testproject\bin\release\wpffootballexercise_testproject.dll" id="ef7f7df0-de88-60cf-b977-99e46f2b464b">
      <Execution id="0d3e58dc-d0bd-4e70-aa64-354f88d60091" />
      <TestMethod codeBase="C:/WpfFootballExercise/WpfFootballExercise_TestProject/bin/Release/WpfFootballExercise_TestProject.DLL" adapterTypeName="Microsoft.VisualStudio.TestTools.TestTypes.Unit.UnitTestAdapter, Microsoft.VisualStudio.QualityTools.Tips.UnitTest.Adapter, Version=10.0.0.0, Culture=neutral, PublicKeyToken=b03f5f7f11d50a3a" className="WpfFootballExercise_TestProject.FootBallModelTest, WpfFootballExercise_TestProject, Version=1.0.0.0, Culture=neutral, PublicKeyToken=null" name="FootBallModelConstructorTest" />
    </UnitTest>
    <UnitTest name="ResourceManagerTest" storage="c:\wpffootballexercise\wpffootballexercise_testproject\bin\release\wpffootballexercise_testproject.dll" id="e2877cf9-fedc-e307-0f16-ace1a1a36ba1">
      <Execution id="b75311f0-9ad3-4372-98ae-ef7b679e56fd" />
      <TestMethod codeBase="C:/WpfFootballExercise/WpfFootballExercise_TestProject/bin/Release/WpfFootballExercise_TestProject.DLL" adapterTypeName="Microsoft.VisualStudio.TestTools.TestTypes.Unit.UnitTestAdapter, Microsoft.VisualStudio.QualityTools.Tips.UnitTest.Adapter, Version=10.0.0.0, Culture=neutral, PublicKeyToken=b03f5f7f11d50a3a" className="WpfFootballExercise_TestProject.ResourcesTest, WpfFootballExercise_TestProject, Version=1.0.0.0, Culture=neutral, PublicKeyToken=null" name="ResourceManagerTest" />
    </UnitTest>
    <UnitTest name="AppConstructorTest" storage="c:\wpffootballexercise\wpffootballexercise_testproject\bin\release\wpffootballexercise_testproject.dll" id="799f2608-69b6-7bce-689e-e97e25033d5f">
      <Execution id="a448eef5-815e-4704-bbfa-29cf19039894" />
      <TestMethod codeBase="C:/WpfFootballExercise/WpfFootballExercise_TestProject/bin/Release/WpfFootballExercise_TestProject.DLL" adapterTypeName="Microsoft.VisualStudio.TestTools.TestTypes.Unit.UnitTestAdapter, Microsoft.VisualStudio.QualityTools.Tips.UnitTest.Adapter, Version=10.0.0.0, Culture=neutral, PublicKeyToken=b03f5f7f11d50a3a" className="WpfFootballExercise_TestProject.AppTest, WpfFootballExercise_TestProject, Version=1.0.0.0, Culture=neutral, PublicKeyToken=null" name="AppConstructorTest" />
    </UnitTest>
  </TestDefinitions>
  <TestLists>
    <TestList name="Results Not in a List" id="8c84fa94-04c1-424b-9868-57a2d4851a1d" />
    <TestList name="All Loaded Results" id="19431567-8539-422a-85d7-44ee4e166bda" />
  </TestLists>
  <TestEntries>
    <TestEntry testId="ef7f7df0-de88-60cf-b977-99e46f2b464b" executionId="0d3e58dc-d0bd-4e70-aa64-354f88d60091" testListId="8c84fa94-04c1-424b-9868-57a2d4851a1d" />
    <TestEntry testId="b5bfeebf-ac24-dcdc-8fce-2cae040ddc1d" executionId="c0f8e8d4-02db-4fe5-af8e-78fbed53f85a" testListId="8c84fa94-04c1-424b-9868-57a2d4851a1d" />
    <TestEntry testId="cc86a5cd-42a8-b592-0036-a3731d20e030" executionId="2d40dee9-451e-452e-b803-26a706ece503" testListId="8c84fa94-04c1-424b-9868-57a2d4851a1d" />
    <TestEntry testId="b708243d-5ab6-27ce-3048-8917d087e2a9" executionId="3e495fbd-7de7-47ee-9045-8e06de4a2c3b" testListId="8c84fa94-04c1-424b-9868-57a2d4851a1d" />
    <TestEntry testId="a895df82-463a-a2b6-ad8b-a274c9067848" executionId="c168ccd7-8b59-49f1-b285-745023ab3806" testListId="8c84fa94-04c1-424b-9868-57a2d4851a1d" />
    <TestEntry testId="7c9a03ac-d198-e8dd-f833-b9d3a55858dd" executionId="1dcccfc9-256b-4df4-b241-7223a534a65b" testListId="8c84fa94-04c1-424b-9868-57a2d4851a1d" />
    <TestEntry testId="799f2608-69b6-7bce-689e-e97e25033d5f" executionId="a448eef5-815e-4704-bbfa-29cf19039894" testListId="8c84fa94-04c1-424b-9868-57a2d4851a1d" />
    <TestEntry testId="fae19a73-99bd-53ac-f99f-381b85d84bbe" executionId="0e0c364f-da45-4ff9-831b-a12bddaaa8e6" testListId="8c84fa94-04c1-424b-9868-57a2d4851a1d" />
    <TestEntry testId="a43d1f53-7027-f6d8-4a6b-8f3c9a0093d0" executionId="7198dc16-1027-4353-adcf-9e1533d2287f" testListId="8c84fa94-04c1-424b-9868-57a2d4851a1d" />
    <TestEntry testId="c6f01cab-5280-79a0-ebb0-29985c551eea" executionId="ea797a0f-6d93-40d1-aac2-21086309127e" testListId="8c84fa94-04c1-424b-9868-57a2d4851a1d" />
    <TestEntry testId="a6e177b9-cbef-4dfd-838b-bf97d961f6f2" executionId="bef9129f-f7e4-469a-b933-6907345312d5" testListId="8c84fa94-04c1-424b-9868-57a2d4851a1d" />
    <TestEntry testId="e2877cf9-fedc-e307-0f16-ace1a1a36ba1" executionId="b75311f0-9ad3-4372-98ae-ef7b679e56fd" testListId="8c84fa94-04c1-424b-9868-57a2d4851a1d" />
  </TestEntries>
  <Results>
    <UnitTestResult executionId="0d3e58dc-d0bd-4e70-aa64-354f88d60091" testId="ef7f7df0-de88-60cf-b977-99e46f2b464b" testName="FootBallModelConstructorTest" computerName="DEVELOPMENT" duration="00:00:00.0244290" startTime="2016-02-27T21:31:01.4062500-08:00" endTime="2016-02-27T21:31:02.3437500-08:00" testType="13cdc9d9-ddb5-4fa4-a97d-d965ccfc6d4b" outcome="Passed" testListId="8c84fa94-04c1-424b-9868-57a2d4851a1d" relativeResultsDirectory="0d3e58dc-d0bd-4e70-aa64-354f88d60091">
    </UnitTestResult>
    <UnitTestResult executionId="c0f8e8d4-02db-4fe5-af8e-78fbed53f85a" testId="b5bfeebf-ac24-dcdc-8fce-2cae040ddc1d" testName="RepositoryConstructorTest" computerName="DEVELOPMENT" duration="00:00:00.0006104" startTime="2016-02-27T21:31:02.3593750-08:00" endTime="2016-02-27T21:31:02.3906250-08:00" testType="13cdc9d9-ddb5-4fa4-a97d-d965ccfc6d4b" outcome="Passed" testListId="8c84fa94-04c1-424b-9868-57a2d4851a1d" relativeResultsDirectory="c0f8e8d4-02db-4fe5-af8e-78fbed53f85a">
    </UnitTestResult>
    <UnitTestResult executionId="2d40dee9-451e-452e-b803-26a706ece503" testId="cc86a5cd-42a8-b592-0036-a3731d20e030" testName="IsOpenPropertyTest" computerName="DEVELOPMENT" duration="00:00:00.0422556" startTime="2016-02-27T21:31:02.4062500-08:00" endTime="2016-02-27T21:31:02.4843750-08:00" testType="13cdc9d9-ddb5-4fa4-a97d-d965ccfc6d4b" outcome="Passed" testListId="8c84fa94-04c1-424b-9868-57a2d4851a1d" relativeResultsDirectory="2d40dee9-451e-452e-b803-26a706ece503">
    </UnitTestResult>
    <UnitTestResult executionId="3e495fbd-7de7-47ee-9045-8e06de4a2c3b" testId="b708243d-5ab6-27ce-3048-8917d087e2a9" testName="InitializeComponentTest" computerName="DEVELOPMENT" duration="00:00:00.2177922" startTime="2016-02-27T21:31:02.5156250-08:00" endTime="2016-02-27T21:31:02.7500000-08:00" testType="13cdc9d9-ddb5-4fa4-a97d-d965ccfc6d4b" outcome="Passed" testListId="8c84fa94-04c1-424b-9868-57a2d4851a1d" relativeResultsDirectory="3e495fbd-7de7-47ee-9045-8e06de4a2c3b">
    </UnitTestResult>
    <UnitTestResult executionId="c168ccd7-8b59-49f1-b285-745023ab3806" testId="a895df82-463a-a2b6-ad8b-a274c9067848" testName="CultureTest" computerName="DEVELOPMENT" duration="00:00:00.0009129" startTime="2016-02-27T21:31:02.7968750-08:00" endTime="2016-02-27T21:31:02.8125000-08:00" testType="13cdc9d9-ddb5-4fa4-a97d-d965ccfc6d4b" outcome="Passed" testListId="8c84fa94-04c1-424b-9868-57a2d4851a1d" relativeResultsDirectory="c168ccd7-8b59-49f1-b285-745023ab3806">
    </UnitTestResult>
    <UnitTestResult executionId="1dcccfc9-256b-4df4-b241-7223a534a65b" testId="7c9a03ac-d198-e8dd-f833-b9d3a55858dd" testName="GoalsScoredForTest" computerName="DEVELOPMENT" duration="00:00:00.0014817" startTime="2016-02-27T21:31:02.8281250-08:00" endTime="2016-02-27T21:31:02.8593750-08:00" testType="13cdc9d9-ddb5-4fa4-a97d-d965ccfc6d4b" outcome="Passed" testListId="8c84fa94-04c1-424b-9868-57a2d4851a1d" relativeResultsDirectory="1dcccfc9-256b-4df4-b241-7223a534a65b">
    </UnitTestResult>
    <UnitTestResult executionId="a448eef5-815e-4704-bbfa-29cf19039894" testId="799f2608-69b6-7bce-689e-e97e25033d5f" testName="AppConstructorTest" computerName="DEVELOPMENT" duration="00:00:00.0011998" startTime="2016-02-27T21:31:02.8750000-08:00" endTime="2016-02-27T21:31:02.9062500-08:00" testType="13cdc9d9-ddb5-4fa4-a97d-d965ccfc6d4b" outcome="Passed" testListId="8c84fa94-04c1-424b-9868-57a2d4851a1d" relativeResultsDirectory="a448eef5-815e-4704-bbfa-29cf19039894">
    </UnitTestResult>
    <UnitTestResult executionId="0e0c364f-da45-4ff9-831b-a12bddaaa8e6" testId="fae19a73-99bd-53ac-f99f-381b85d84bbe" testName="DifferencePropertyTest" computerName="DEVELOPMENT" duration="00:00:00.0207258" startTime="2016-02-27T21:31:02.9218750-08:00" endTime="2016-02-27T21:31:03.0937500-08:00" testType="13cdc9d9-ddb5-4fa4-a97d-d965ccfc6d4b" outcome="Passed" testListId="8c84fa94-04c1-424b-9868-57a2d4851a1d" relativeResultsDirectory="0e0c364f-da45-4ff9-831b-a12bddaaa8e6">
    </UnitTestResult>
    <UnitTestResult executionId="7198dc16-1027-4353-adcf-9e1533d2287f" testId="a43d1f53-7027-f6d8-4a6b-8f3c9a0093d0" testName="InitializeComponentTest" computerName="DEVELOPMENT" duration="00:00:03.5156415" startTime="2016-02-27T21:31:03.1250000-08:00" endTime="2016-02-27T21:31:06.6562500-08:00" testType="13cdc9d9-ddb5-4fa4-a97d-d965ccfc6d4b" outcome="Passed" testListId="8c84fa94-04c1-424b-9868-57a2d4851a1d" relativeResultsDirectory="7198dc16-1027-4353-adcf-9e1533d2287f">
    </UnitTestResult>
    <UnitTestResult executionId="ea797a0f-6d93-40d1-aac2-21086309127e" testId="c6f01cab-5280-79a0-ebb0-29985c551eea" testName="GoalScoredForPropertyTest" computerName="DEVELOPMENT" duration="00:00:00.0165968" startTime="2016-02-27T21:31:06.6718750-08:00" endTime="2016-02-27T21:31:06.7187500-08:00" testType="13cdc9d9-ddb5-4fa4-a97d-d965ccfc6d4b" outcome="Passed" testListId="8c84fa94-04c1-424b-9868-57a2d4851a1d" relativeResultsDirectory="ea797a0f-6d93-40d1-aac2-21086309127e">
    </UnitTestResult>
    <UnitTestResult executionId="bef9129f-f7e4-469a-b933-6907345312d5" testId="a6e177b9-cbef-4dfd-838b-bf97d961f6f2" testName="FootballExerciseViewModelConstructorTest" computerName="DEVELOPMENT" duration="00:00:00.0268847" startTime="2016-02-27T21:31:06.7500000-08:00" endTime="2016-02-27T21:31:06.7968750-08:00" testType="13cdc9d9-ddb5-4fa4-a97d-d965ccfc6d4b" outcome="Passed" testListId="8c84fa94-04c1-424b-9868-57a2d4851a1d" relativeResultsDirectory="bef9129f-f7e4-469a-b933-6907345312d5">
    </UnitTestResult>
    <UnitTestResult executionId="b75311f0-9ad3-4372-98ae-ef7b679e56fd" testId="e2877cf9-fedc-e307-0f16-ace1a1a36ba1" testName="ResourceManagerTest" computerName="DEVELOPMENT" duration="00:00:00.0017803" startTime="2016-02-27T21:31:06.8281250-08:00" endTime="2016-02-27T21:31:06.8593750-08:00" testType="13cdc9d9-ddb5-4fa4-a97d-d965ccfc6d4b" outcome="Passed" testListId="8c84fa94-04c1-424b-9868-57a2d4851a1d" relativeResultsDirectory="b75311f0-9ad3-4372-98ae-ef7b679e56fd">
    </UnitTestResult>
  </Results>
</TestRun>