﻿<?xml version="1.0" encoding="UTF-8"?>
<TestRun id="519e6533-45ba-4450-a63a-0d90d487d4b5" name="Admin@DEVELOPMENT 2016-02-27 21:31:52" runUser="DEVELOPMENT\Admin" xmlns="http://microsoft.com/schemas/VisualStudio/TeamTest/2010">
  <TestSettings name="Local" id="1d6239b9-3725-4107-9802-b3e02f79ef3e">
    <Description>These are default test settings for a local test run.</Description>
    <Deployment enabled="false" runDeploymentRoot="Admin_DEVELOPMENT 2016-02-27 21_31_52">
      <DeploymentItem filename="C:\WpfFootballExercise\WpfFootballExercise\bin\Release\WpfFootballExercise.exe" />
    </Deployment>
    <Execution>
      <TestTypeSpecific />
      <AgentRule name="Execution Agents">
      </AgentRule>
    </Execution>
  </TestSettings>
  <Times creation="2016-02-27T21:31:52.4062500-08:00" queuing="2016-02-27T21:31:52.7500000-08:00" start="2016-02-27T21:31:52.8750000-08:00" finish="2016-02-27T21:31:54.3593750-08:00" />
  <ResultSummary outcome="Warning">
    <Counters total="27" executed="27" passed="27" error="0" failed="0" timeout="0" aborted="0" inconclusive="0" passedButRunAborted="0" notRunnable="0" notExecuted="0" disconnected="0" warning="0" completed="0" inProgress="0" pending="0" />
    <RunInfos>
      <RunInfo computerName="DEVELOPMENT" outcome="Warning" timestamp="2016-02-27T21:31:52.4531250-08:00">
        <Text>Deployment is currently disabled. The deployment item 'WpfFootballExercise.exe' on test 'WpfFootballExercise_TestProject.RepositoryTest.ColumnExtractionRoutineTest' was not deployed.</Text>
      </RunInfo>
    </RunInfos>
  </ResultSummary>
  <TestDefinitions>
    <UnitTest name="ColumnExtractionRoutineTest" storage="c:\wpffootballexercise\wpffootballexercise_testproject\bin\release\wpffootballexercise_testproject.dll" id="440f63f4-3038-3a01-6ba8-082936f566f3">
      <DeploymentItems>
        <DeploymentItem filename="WpfFootballExercise.exe" />
      </DeploymentItems>
      <Execution id="3fdc7abf-e4be-41dd-9747-1a090b451e9e" />
      <TestMethod codeBase="C:/WpfFootballExercise/WpfFootballExercise_TestProject/bin/Release/WpfFootballExercise_TestProject.DLL" adapterTypeName="Microsoft.VisualStudio.TestTools.TestTypes.Unit.UnitTestAdapter, Microsoft.VisualStudio.QualityTools.Tips.UnitTest.Adapter, Version=10.0.0.0, Culture=neutral, PublicKeyToken=b03f5f7f11d50a3a" className="WpfFootballExercise_TestProject.RepositoryTest, WpfFootballExercise_TestProject, Version=1.0.0.0, Culture=neutral, PublicKeyToken=null" name="ColumnExtractionRoutineTest" />
    </UnitTest>
    <UnitTest name="GoalScoredAgainstPropertyTest" storage="c:\wpffootballexercise\wpffootballexercise_testproject\bin\release\wpffootballexercise_testproject.dll" id="3da7db19-8cee-d201-d71e-f46bcae2fb27">
      <Execution id="fbae3b8d-52e2-45e7-917b-43de1378866a" />
      <TestMethod codeBase="C:/WpfFootballExercise/WpfFootballExercise_TestProject/bin/Release/WpfFootballExercise_TestProject.DLL" adapterTypeName="Microsoft.VisualStudio.TestTools.TestTypes.Unit.UnitTestAdapter, Microsoft.VisualStudio.QualityTools.Tips.UnitTest.Adapter, Version=10.0.0.0, Culture=neutral, PublicKeyToken=b03f5f7f11d50a3a" className="WpfFootballExercise_TestProject.FootballExerciseViewModelTest, WpfFootballExercise_TestProject, Version=1.0.0.0, Culture=neutral, PublicKeyToken=null" name="GoalScoredAgainstPropertyTest" />
    </UnitTest>
    <UnitTest name="DefaultTest" storage="c:\wpffootballexercise\wpffootballexercise_testproject\bin\release\wpffootballexercise_testproject.dll" id="8f4ca596-9c19-5b6e-6cf5-8879fec1f8f3">
      <Execution id="6aad11f0-d680-4fc9-a6ef-6cf220be052d" />
      <TestMethod codeBase="C:/WpfFootballExercise/WpfFootballExercise_TestProject/bin/Release/WpfFootballExercise_TestProject.DLL" adapterTypeName="Microsoft.VisualStudio.TestTools.TestTypes.Unit.UnitTestAdapter, Microsoft.VisualStudio.QualityTools.Tips.UnitTest.Adapter, Version=10.0.0.0, Culture=neutral, PublicKeyToken=b03f5f7f11d50a3a" className="WpfFootballExercise_TestProject.SettingsTest, WpfFootballExercise_TestProject, Version=1.0.0.0, Culture=neutral, PublicKeyToken=null" name="DefaultTest" />
    </UnitTest>
    <UnitTest name="CalculateTeamWithSmallestDifferenceTest" storage="c:\wpffootballexercise\wpffootballexercise_testproject\bin\release\wpffootballexercise_testproject.dll" id="6ddc06d6-b1a4-36f3-9958-dece23e8f9af">
      <DeploymentItems>
        <DeploymentItem filename="WpfFootballExercise.exe" />
      </DeploymentItems>
      <Execution id="32921c1d-4b1c-41c5-960e-07ad823f3da4" />
      <TestMethod codeBase="C:/WpfFootballExercise/WpfFootballExercise_TestProject/bin/Release/WpfFootballExercise_TestProject.DLL" adapterTypeName="Microsoft.VisualStudio.TestTools.TestTypes.Unit.UnitTestAdapter, Microsoft.VisualStudio.QualityTools.Tips.UnitTest.Adapter, Version=10.0.0.0, Culture=neutral, PublicKeyToken=b03f5f7f11d50a3a" className="WpfFootballExercise_TestProject.FootballExerciseViewModelTest, WpfFootballExercise_TestProject, Version=1.0.0.0, Culture=neutral, PublicKeyToken=null" name="CalculateTeamWithSmallestDifferenceTest" />
    </UnitTest>
    <UnitTest name="IsOpenPropertyTest" storage="c:\wpffootballexercise\wpffootballexercise_testproject\bin\release\wpffootballexercise_testproject.dll" id="cc86a5cd-42a8-b592-0036-a3731d20e030">
      <Execution id="56b29fc2-5c92-4687-bdd5-4f0facfc16bd" />
      <TestMethod codeBase="C:/WpfFootballExercise/WpfFootballExercise_TestProject/bin/Release/WpfFootballExercise_TestProject.DLL" adapterTypeName="Microsoft.VisualStudio.TestTools.TestTypes.Unit.UnitTestAdapter, Microsoft.VisualStudio.QualityTools.Tips.UnitTest.Adapter, Version=10.0.0.0, Culture=neutral, PublicKeyToken=b03f5f7f11d50a3a" className="WpfFootballExercise_TestProject.FootballExerciseViewModelTest, WpfFootballExercise_TestProject, Version=1.0.0.0, Culture=neutral, PublicKeyToken=null" name="IsOpenPropertyTest" />
    </UnitTest>
    <UnitTest name="ConnectTest" storage="c:\wpffootballexercise\wpffootballexercise_testproject\bin\release\wpffootballexercise_testproject.dll" id="2bda32e4-2fee-ecf7-0231-9ba9a2e662af">
      <DeploymentItems>
        <DeploymentItem filename="WpfFootballExercise.exe" />
      </DeploymentItems>
      <Execution id="e04b574e-2706-4cd4-b6ce-6f77e7591134" />
      <TestMethod codeBase="C:/WpfFootballExercise/WpfFootballExercise_TestProject/bin/Release/WpfFootballExercise_TestProject.DLL" adapterTypeName="Microsoft.VisualStudio.TestTools.TestTypes.Unit.UnitTestAdapter, Microsoft.VisualStudio.QualityTools.Tips.UnitTest.Adapter, Version=10.0.0.0, Culture=neutral, PublicKeyToken=b03f5f7f11d50a3a" className="WpfFootballExercise_TestProject.wpfFootBallExerciseTest, WpfFootballExercise_TestProject, Version=1.0.0.0, Culture=neutral, PublicKeyToken=null" name="ConnectTest" />
    </UnitTest>
    <UnitTest name="TeamNameTest" storage="c:\wpffootballexercise\wpffootballexercise_testproject\bin\release\wpffootballexercise_testproject.dll" id="0a8a974d-6f34-82cf-a7df-a6e81db3ddd5">
      <Execution id="d190383f-6356-42e6-a153-9a9d3540d0d1" />
      <TestMethod codeBase="C:/WpfFootballExercise/WpfFootballExercise_TestProject/bin/Release/WpfFootballExercise_TestProject.DLL" adapterTypeName="Microsoft.VisualStudio.TestTools.TestTypes.Unit.UnitTestAdapter, Microsoft.VisualStudio.QualityTools.Tips.UnitTest.Adapter, Version=10.0.0.0, Culture=neutral, PublicKeyToken=b03f5f7f11d50a3a" className="WpfFootballExercise_TestProject.FootBallModelTest, WpfFootballExercise_TestProject, Version=1.0.0.0, Culture=neutral, PublicKeyToken=null" name="TeamNameTest" />
    </UnitTest>
    <UnitTest name="InitializeComponentTest" storage="c:\wpffootballexercise\wpffootballexercise_testproject\bin\release\wpffootballexercise_testproject.dll" id="a43d1f53-7027-f6d8-4a6b-8f3c9a0093d0">
      <Execution id="e4efa61f-62b1-4366-b497-c138d60ee7b0" />
      <TestMethod codeBase="C:/WpfFootballExercise/WpfFootballExercise_TestProject/bin/Release/WpfFootballExercise_TestProject.DLL" adapterTypeName="Microsoft.VisualStudio.TestTools.TestTypes.Unit.UnitTestAdapter, Microsoft.VisualStudio.QualityTools.Tips.UnitTest.Adapter, Version=10.0.0.0, Culture=neutral, PublicKeyToken=b03f5f7f11d50a3a" className="WpfFootballExercise_TestProject.AppTest, WpfFootballExercise_TestProject, Version=1.0.0.0, Culture=neutral, PublicKeyToken=null" name="InitializeComponentTest" />
    </UnitTest>
    <UnitTest name="GoalsScoredAgainstTest" storage="c:\wpffootballexercise\wpffootballexercise_testproject\bin\release\wpffootballexercise_testproject.dll" id="2e36de62-9d42-8acc-0d83-87d9d1d8541f">
      <Execution id="9d58f1b3-de62-4d6d-9321-372dee98d7b0" />
      <TestMethod codeBase="C:/WpfFootballExercise/WpfFootballExercise_TestProject/bin/Release/WpfFootballExercise_TestProject.DLL" adapterTypeName="Microsoft.VisualStudio.TestTools.TestTypes.Unit.UnitTestAdapter, Microsoft.VisualStudio.QualityTools.Tips.UnitTest.Adapter, Version=10.0.0.0, Culture=neutral, PublicKeyToken=b03f5f7f11d50a3a" className="WpfFootballExercise_TestProject.FootBallModelTest, WpfFootballExercise_TestProject, Version=1.0.0.0, Culture=neutral, PublicKeyToken=null" name="GoalsScoredAgainstTest" />
    </UnitTest>
    <UnitTest name="TeamNamePropertyTest" storage="c:\wpffootballexercise\wpffootballexercise_testproject\bin\release\wpffootballexercise_testproject.dll" id="5edf6a9f-50d8-1f37-9cdc-741dbf1daaa0">
      <Execution id="2171abb1-7a00-4120-9c70-f3ad3d408c17" />
      <TestMethod codeBase="C:/WpfFootballExercise/WpfFootballExercise_TestProject/bin/Release/WpfFootballExercise_TestProject.DLL" adapterTypeName="Microsoft.VisualStudio.TestTools.TestTypes.Unit.UnitTestAdapter, Microsoft.VisualStudio.QualityTools.Tips.UnitTest.Adapter, Version=10.0.0.0, Culture=neutral, PublicKeyToken=b03f5f7f11d50a3a" className="WpfFootballExercise_TestProject.FootballExerciseViewModelTest, WpfFootballExercise_TestProject, Version=1.0.0.0, Culture=neutral, PublicKeyToken=null" name="TeamNamePropertyTest" />
    </UnitTest>
    <UnitTest name="FootballExerciseViewModelConstructorTest" storage="c:\wpffootballexercise\wpffootballexercise_testproject\bin\release\wpffootballexercise_testproject.dll" id="a6e177b9-cbef-4dfd-838b-bf97d961f6f2">
      <Execution id="f33fd536-df40-499f-a18e-306875a0ee33" />
      <TestMethod codeBase="C:/WpfFootballExercise/WpfFootballExercise_TestProject/bin/Release/WpfFootballExercise_TestProject.DLL" adapterTypeName="Microsoft.VisualStudio.TestTools.TestTypes.Unit.UnitTestAdapter, Microsoft.VisualStudio.QualityTools.Tips.UnitTest.Adapter, Version=10.0.0.0, Culture=neutral, PublicKeyToken=b03f5f7f11d50a3a" className="WpfFootballExercise_TestProject.FootballExerciseViewModelTest, WpfFootballExercise_TestProject, Version=1.0.0.0, Culture=neutral, PublicKeyToken=null" name="FootballExerciseViewModelConstructorTest" />
    </UnitTest>
    <UnitTest name="ErrorMessagePropertyTest" storage="c:\wpffootballexercise\wpffootballexercise_testproject\bin\release\wpffootballexercise_testproject.dll" id="69194a15-7526-c60b-3a55-b286429c507a">
      <Execution id="01a5b319-3140-4223-92a9-46270d347217" />
      <TestMethod codeBase="C:/WpfFootballExercise/WpfFootballExercise_TestProject/bin/Release/WpfFootballExercise_TestProject.DLL" adapterTypeName="Microsoft.VisualStudio.TestTools.TestTypes.Unit.UnitTestAdapter, Microsoft.VisualStudio.QualityTools.Tips.UnitTest.Adapter, Version=10.0.0.0, Culture=neutral, PublicKeyToken=b03f5f7f11d50a3a" className="WpfFootballExercise_TestProject.FootballExerciseViewModelTest, WpfFootballExercise_TestProject, Version=1.0.0.0, Culture=neutral, PublicKeyToken=null" name="ErrorMessagePropertyTest" />
    </UnitTest>
    <UnitTest name="GoalsScoredForTest" storage="c:\wpffootballexercise\wpffootballexercise_testproject\bin\release\wpffootballexercise_testproject.dll" id="7c9a03ac-d198-e8dd-f833-b9d3a55858dd">
      <Execution id="c3b21816-745e-44af-b6ff-452be5a78d24" />
      <TestMethod codeBase="C:/WpfFootballExercise/WpfFootballExercise_TestProject/bin/Release/WpfFootballExercise_TestProject.DLL" adapterTypeName="Microsoft.VisualStudio.TestTools.TestTypes.Unit.UnitTestAdapter, Microsoft.VisualStudio.QualityTools.Tips.UnitTest.Adapter, Version=10.0.0.0, Culture=neutral, PublicKeyToken=b03f5f7f11d50a3a" className="WpfFootballExercise_TestProject.FootBallModelTest, WpfFootballExercise_TestProject, Version=1.0.0.0, Culture=neutral, PublicKeyToken=null" name="GoalsScoredForTest" />
    </UnitTest>
    <UnitTest name="ResourcesConstructorTest" storage="c:\wpffootballexercise\wpffootballexercise_testproject\bin\release\wpffootballexercise_testproject.dll" id="030601f2-6b82-81cd-5884-3e11afc7d590">
      <Execution id="21d9d8db-fb2d-4d9a-8c1d-e241c5a595c6" />
      <TestMethod codeBase="C:/WpfFootballExercise/WpfFootballExercise_TestProject/bin/Release/WpfFootballExercise_TestProject.DLL" adapterTypeName="Microsoft.VisualStudio.TestTools.TestTypes.Unit.UnitTestAdapter, Microsoft.VisualStudio.QualityTools.Tips.UnitTest.Adapter, Version=10.0.0.0, Culture=neutral, PublicKeyToken=b03f5f7f11d50a3a" className="WpfFootballExercise_TestProject.ResourcesTest, WpfFootballExercise_TestProject, Version=1.0.0.0, Culture=neutral, PublicKeyToken=null" name="ResourcesConstructorTest" />
    </UnitTest>
    <UnitTest name="InitializeComponentTest" storage="c:\wpffootballexercise\wpffootballexercise_testproject\bin\release\wpffootballexercise_testproject.dll" id="b708243d-5ab6-27ce-3048-8917d087e2a9">
      <Execution id="e363d771-4ddc-4daf-8b17-1974a3190c31" />
      <TestMethod codeBase="C:/WpfFootballExercise/WpfFootballExercise_TestProject/bin/Release/WpfFootballExercise_TestProject.DLL" adapterTypeName="Microsoft.VisualStudio.TestTools.TestTypes.Unit.UnitTestAdapter, Microsoft.VisualStudio.QualityTools.Tips.UnitTest.Adapter, Version=10.0.0.0, Culture=neutral, PublicKeyToken=b03f5f7f11d50a3a" className="WpfFootballExercise_TestProject.wpfFootBallExerciseTest, WpfFootballExercise_TestProject, Version=1.0.0.0, Culture=neutral, PublicKeyToken=null" name="InitializeComponentTest" />
    </UnitTest>
    <UnitTest name="MainTest" storage="c:\wpffootballexercise\wpffootballexercise_testproject\bin\release\wpffootballexercise_testproject.dll" id="092c4f37-68ca-29b8-1f11-1ef46c55261c">
      <Execution id="cca8e176-7ec2-4634-ba29-3ccd6a8ad6f5" />
      <TestMethod codeBase="C:/WpfFootballExercise/WpfFootballExercise_TestProject/bin/Release/WpfFootballExercise_TestProject.DLL" adapterTypeName="Microsoft.VisualStudio.TestTools.TestTypes.Unit.UnitTestAdapter, Microsoft.VisualStudio.QualityTools.Tips.UnitTest.Adapter, Version=10.0.0.0, Culture=neutral, PublicKeyToken=b03f5f7f11d50a3a" className="WpfFootballExercise_TestProject.AppTest, WpfFootballExercise_TestProject, Version=1.0.0.0, Culture=neutral, PublicKeyToken=null" name="MainTest" />
    </UnitTest>
    <UnitTest name="AppConstructorTest" storage="c:\wpffootballexercise\wpffootballexercise_testproject\bin\release\wpffootballexercise_testproject.dll" id="799f2608-69b6-7bce-689e-e97e25033d5f">
      <Execution id="c038a01f-c1d9-4bde-a6fa-c261b5b30437" />
      <TestMethod codeBase="C:/WpfFootballExercise/WpfFootballExercise_TestProject/bin/Release/WpfFootballExercise_TestProject.DLL" adapterTypeName="Microsoft.VisualStudio.TestTools.TestTypes.Unit.UnitTestAdapter, Microsoft.VisualStudio.QualityTools.Tips.UnitTest.Adapter, Version=10.0.0.0, Culture=neutral, PublicKeyToken=b03f5f7f11d50a3a" className="WpfFootballExercise_TestProject.AppTest, WpfFootballExercise_TestProject, Version=1.0.0.0, Culture=neutral, PublicKeyToken=null" name="AppConstructorTest" />
    </UnitTest>
    <UnitTest name="SettingsConstructorTest" storage="c:\wpffootballexercise\wpffootballexercise_testproject\bin\release\wpffootballexercise_testproject.dll" id="368fab1a-65bd-e24a-c993-455b0cbd7bd0">
      <Execution id="aa340198-710d-4bd6-80d0-e43b6ca81bc2" />
      <TestMethod codeBase="C:/WpfFootballExercise/WpfFootballExercise_TestProject/bin/Release/WpfFootballExercise_TestProject.DLL" adapterTypeName="Microsoft.VisualStudio.TestTools.TestTypes.Unit.UnitTestAdapter, Microsoft.VisualStudio.QualityTools.Tips.UnitTest.Adapter, Version=10.0.0.0, Culture=neutral, PublicKeyToken=b03f5f7f11d50a3a" className="WpfFootballExercise_TestProject.SettingsTest, WpfFootballExercise_TestProject, Version=1.0.0.0, Culture=neutral, PublicKeyToken=null" name="SettingsConstructorTest" />
    </UnitTest>
    <UnitTest name="RepositoryConstructorTest" storage="c:\wpffootballexercise\wpffootballexercise_testproject\bin\release\wpffootballexercise_testproject.dll" id="b5bfeebf-ac24-dcdc-8fce-2cae040ddc1d">
      <Execution id="fd40fbd4-0399-4f09-9433-a64bcb854d7e" />
      <TestMethod codeBase="C:/WpfFootballExercise/WpfFootballExercise_TestProject/bin/Release/WpfFootballExercise_TestProject.DLL" adapterTypeName="Microsoft.VisualStudio.TestTools.TestTypes.Unit.UnitTestAdapter, Microsoft.VisualStudio.QualityTools.Tips.UnitTest.Adapter, Version=10.0.0.0, Culture=neutral, PublicKeyToken=b03f5f7f11d50a3a" className="WpfFootballExercise_TestProject.RepositoryTest, WpfFootballExercise_TestProject, Version=1.0.0.0, Culture=neutral, PublicKeyToken=null" name="RepositoryConstructorTest" />
    </UnitTest>
    <UnitTest name="FootBallModelConstructorTest" storage="c:\wpffootballexercise\wpffootballexercise_testproject\bin\release\wpffootballexercise_testproject.dll" id="ef7f7df0-de88-60cf-b977-99e46f2b464b">
      <Execution id="1527b587-1eda-4aba-b37f-bf1749bfa00f" />
      <TestMethod codeBase="C:/WpfFootballExercise/WpfFootballExercise_TestProject/bin/Release/WpfFootballExercise_TestProject.DLL" adapterTypeName="Microsoft.VisualStudio.TestTools.TestTypes.Unit.UnitTestAdapter, Microsoft.VisualStudio.QualityTools.Tips.UnitTest.Adapter, Version=10.0.0.0, Culture=neutral, PublicKeyToken=b03f5f7f11d50a3a" className="WpfFootballExercise_TestProject.FootBallModelTest, WpfFootballExercise_TestProject, Version=1.0.0.0, Culture=neutral, PublicKeyToken=null" name="FootBallModelConstructorTest" />
    </UnitTest>
    <UnitTest name="ResourceManagerTest" storage="c:\wpffootballexercise\wpffootballexercise_testproject\bin\release\wpffootballexercise_testproject.dll" id="e2877cf9-fedc-e307-0f16-ace1a1a36ba1">
      <Execution id="6c54d5c9-caaa-4d9d-903e-0eec5b25ae7f" />
      <TestMethod codeBase="C:/WpfFootballExercise/WpfFootballExercise_TestProject/bin/Release/WpfFootballExercise_TestProject.DLL" adapterTypeName="Microsoft.VisualStudio.TestTools.TestTypes.Unit.UnitTestAdapter, Microsoft.VisualStudio.QualityTools.Tips.UnitTest.Adapter, Version=10.0.0.0, Culture=neutral, PublicKeyToken=b03f5f7f11d50a3a" className="WpfFootballExercise_TestProject.ResourcesTest, WpfFootballExercise_TestProject, Version=1.0.0.0, Culture=neutral, PublicKeyToken=null" name="ResourceManagerTest" />
    </UnitTest>
    <UnitTest name="CultureTest" storage="c:\wpffootballexercise\wpffootballexercise_testproject\bin\release\wpffootballexercise_testproject.dll" id="a895df82-463a-a2b6-ad8b-a274c9067848">
      <Execution id="2d716fdf-4c56-4147-acf2-e9f3673fa290" />
      <TestMethod codeBase="C:/WpfFootballExercise/WpfFootballExercise_TestProject/bin/Release/WpfFootballExercise_TestProject.DLL" adapterTypeName="Microsoft.VisualStudio.TestTools.TestTypes.Unit.UnitTestAdapter, Microsoft.VisualStudio.QualityTools.Tips.UnitTest.Adapter, Version=10.0.0.0, Culture=neutral, PublicKeyToken=b03f5f7f11d50a3a" className="WpfFootballExercise_TestProject.ResourcesTest, WpfFootballExercise_TestProject, Version=1.0.0.0, Culture=neutral, PublicKeyToken=null" name="CultureTest" />
    </UnitTest>
    <UnitTest name="wpfFootBallExerciseConstructorTest" storage="c:\wpffootballexercise\wpffootballexercise_testproject\bin\release\wpffootballexercise_testproject.dll" id="36bd3582-cdf8-045a-d2d0-5769b83d42fd">
      <Execution id="7c945c63-d531-4eaf-b5be-879d15af5387" />
      <TestMethod codeBase="C:/WpfFootballExercise/WpfFootballExercise_TestProject/bin/Release/WpfFootballExercise_TestProject.DLL" adapterTypeName="Microsoft.VisualStudio.TestTools.TestTypes.Unit.UnitTestAdapter, Microsoft.VisualStudio.QualityTools.Tips.UnitTest.Adapter, Version=10.0.0.0, Culture=neutral, PublicKeyToken=b03f5f7f11d50a3a" className="WpfFootballExercise_TestProject.wpfFootBallExerciseTest, WpfFootballExercise_TestProject, Version=1.0.0.0, Culture=neutral, PublicKeyToken=null" name="wpfFootBallExerciseConstructorTest" />
    </UnitTest>
    <UnitTest name="SelectTest" storage="c:\wpffootballexercise\wpffootballexercise_testproject\bin\release\wpffootballexercise_testproject.dll" id="afda17c4-c99c-928d-34dd-80a6c20cf545">
      <Execution id="07648ade-8e3f-4cf2-b050-32ebbd466cca" />
      <TestMethod codeBase="C:/WpfFootballExercise/WpfFootballExercise_TestProject/bin/Release/WpfFootballExercise_TestProject.DLL" adapterTypeName="Microsoft.VisualStudio.TestTools.TestTypes.Unit.UnitTestAdapter, Microsoft.VisualStudio.QualityTools.Tips.UnitTest.Adapter, Version=10.0.0.0, Culture=neutral, PublicKeyToken=b03f5f7f11d50a3a" className="WpfFootballExercise_TestProject.RepositoryTest, WpfFootballExercise_TestProject, Version=1.0.0.0, Culture=neutral, PublicKeyToken=null" name="SelectTest" />
    </UnitTest>
    <UnitTest name="GoalScoredForPropertyTest" storage="c:\wpffootballexercise\wpffootballexercise_testproject\bin\release\wpffootballexercise_testproject.dll" id="c6f01cab-5280-79a0-ebb0-29985c551eea">
      <Execution id="7129e58d-646a-4877-9be2-4a7834c1a0e8" />
      <TestMethod codeBase="C:/WpfFootballExercise/WpfFootballExercise_TestProject/bin/Release/WpfFootballExercise_TestProject.DLL" adapterTypeName="Microsoft.VisualStudio.TestTools.TestTypes.Unit.UnitTestAdapter, Microsoft.VisualStudio.QualityTools.Tips.UnitTest.Adapter, Version=10.0.0.0, Culture=neutral, PublicKeyToken=b03f5f7f11d50a3a" className="WpfFootballExercise_TestProject.FootballExerciseViewModelTest, WpfFootballExercise_TestProject, Version=1.0.0.0, Culture=neutral, PublicKeyToken=null" name="GoalScoredForPropertyTest" />
    </UnitTest>
    <UnitTest name="DifferencePropertyTest" storage="c:\wpffootballexercise\wpffootballexercise_testproject\bin\release\wpffootballexercise_testproject.dll" id="fae19a73-99bd-53ac-f99f-381b85d84bbe">
      <Execution id="4492e3e1-254e-4d2f-8e05-cb48df83e0d5" />
      <TestMethod codeBase="C:/WpfFootballExercise/WpfFootballExercise_TestProject/bin/Release/WpfFootballExercise_TestProject.DLL" adapterTypeName="Microsoft.VisualStudio.TestTools.TestTypes.Unit.UnitTestAdapter, Microsoft.VisualStudio.QualityTools.Tips.UnitTest.Adapter, Version=10.0.0.0, Culture=neutral, PublicKeyToken=b03f5f7f11d50a3a" className="WpfFootballExercise_TestProject.FootballExerciseViewModelTest, WpfFootballExercise_TestProject, Version=1.0.0.0, Culture=neutral, PublicKeyToken=null" name="DifferencePropertyTest" />
    </UnitTest>
    <UnitTest name="DifferenceGoalsScoredForAgainstTest" storage="c:\wpffootballexercise\wpffootballexercise_testproject\bin\release\wpffootballexercise_testproject.dll" id="52845a88-16e2-1b0e-960f-006ca2de93f2">
      <Execution id="2057850a-68d3-4c54-b99c-a08298d810fb" />
      <TestMethod codeBase="C:/WpfFootballExercise/WpfFootballExercise_TestProject/bin/Release/WpfFootballExercise_TestProject.DLL" adapterTypeName="Microsoft.VisualStudio.TestTools.TestTypes.Unit.UnitTestAdapter, Microsoft.VisualStudio.QualityTools.Tips.UnitTest.Adapter, Version=10.0.0.0, Culture=neutral, PublicKeyToken=b03f5f7f11d50a3a" className="WpfFootballExercise_TestProject.FootBallModelTest, WpfFootballExercise_TestProject, Version=1.0.0.0, Culture=neutral, PublicKeyToken=null" name="DifferenceGoalsScoredForAgainstTest" />
    </UnitTest>
  </TestDefinitions>
  <TestLists>
    <TestList name="Results Not in a List" id="8c84fa94-04c1-424b-9868-57a2d4851a1d" />
    <TestList name="All Loaded Results" id="19431567-8539-422a-85d7-44ee4e166bda" />
  </TestLists>
  <TestEntries>
    <TestEntry testId="030601f2-6b82-81cd-5884-3e11afc7d590" executionId="21d9d8db-fb2d-4d9a-8c1d-e241c5a595c6" testListId="8c84fa94-04c1-424b-9868-57a2d4851a1d" />
    <TestEntry testId="092c4f37-68ca-29b8-1f11-1ef46c55261c" executionId="cca8e176-7ec2-4634-ba29-3ccd6a8ad6f5" testListId="8c84fa94-04c1-424b-9868-57a2d4851a1d" />
    <TestEntry testId="0a8a974d-6f34-82cf-a7df-a6e81db3ddd5" executionId="d190383f-6356-42e6-a153-9a9d3540d0d1" testListId="8c84fa94-04c1-424b-9868-57a2d4851a1d" />
    <TestEntry testId="2bda32e4-2fee-ecf7-0231-9ba9a2e662af" executionId="e04b574e-2706-4cd4-b6ce-6f77e7591134" testListId="8c84fa94-04c1-424b-9868-57a2d4851a1d" />
    <TestEntry testId="2e36de62-9d42-8acc-0d83-87d9d1d8541f" executionId="9d58f1b3-de62-4d6d-9321-372dee98d7b0" testListId="8c84fa94-04c1-424b-9868-57a2d4851a1d" />
    <TestEntry testId="368fab1a-65bd-e24a-c993-455b0cbd7bd0" executionId="aa340198-710d-4bd6-80d0-e43b6ca81bc2" testListId="8c84fa94-04c1-424b-9868-57a2d4851a1d" />
    <TestEntry testId="36bd3582-cdf8-045a-d2d0-5769b83d42fd" executionId="7c945c63-d531-4eaf-b5be-879d15af5387" testListId="8c84fa94-04c1-424b-9868-57a2d4851a1d" />
    <TestEntry testId="3da7db19-8cee-d201-d71e-f46bcae2fb27" executionId="fbae3b8d-52e2-45e7-917b-43de1378866a" testListId="8c84fa94-04c1-424b-9868-57a2d4851a1d" />
    <TestEntry testId="440f63f4-3038-3a01-6ba8-082936f566f3" executionId="3fdc7abf-e4be-41dd-9747-1a090b451e9e" testListId="8c84fa94-04c1-424b-9868-57a2d4851a1d" />
    <TestEntry testId="52845a88-16e2-1b0e-960f-006ca2de93f2" executionId="2057850a-68d3-4c54-b99c-a08298d810fb" testListId="8c84fa94-04c1-424b-9868-57a2d4851a1d" />
    <TestEntry testId="5edf6a9f-50d8-1f37-9cdc-741dbf1daaa0" executionId="2171abb1-7a00-4120-9c70-f3ad3d408c17" testListId="8c84fa94-04c1-424b-9868-57a2d4851a1d" />
    <TestEntry testId="69194a15-7526-c60b-3a55-b286429c507a" executionId="01a5b319-3140-4223-92a9-46270d347217" testListId="8c84fa94-04c1-424b-9868-57a2d4851a1d" />
    <TestEntry testId="6ddc06d6-b1a4-36f3-9958-dece23e8f9af" executionId="32921c1d-4b1c-41c5-960e-07ad823f3da4" testListId="8c84fa94-04c1-424b-9868-57a2d4851a1d" />
    <TestEntry testId="799f2608-69b6-7bce-689e-e97e25033d5f" executionId="c038a01f-c1d9-4bde-a6fa-c261b5b30437" testListId="8c84fa94-04c1-424b-9868-57a2d4851a1d" />
    <TestEntry testId="7c9a03ac-d198-e8dd-f833-b9d3a55858dd" executionId="c3b21816-745e-44af-b6ff-452be5a78d24" testListId="8c84fa94-04c1-424b-9868-57a2d4851a1d" />
    <TestEntry testId="8f4ca596-9c19-5b6e-6cf5-8879fec1f8f3" executionId="6aad11f0-d680-4fc9-a6ef-6cf220be052d" testListId="8c84fa94-04c1-424b-9868-57a2d4851a1d" />
    <TestEntry testId="a43d1f53-7027-f6d8-4a6b-8f3c9a0093d0" executionId="e4efa61f-62b1-4366-b497-c138d60ee7b0" testListId="8c84fa94-04c1-424b-9868-57a2d4851a1d" />
    <TestEntry testId="a6e177b9-cbef-4dfd-838b-bf97d961f6f2" executionId="f33fd536-df40-499f-a18e-306875a0ee33" testListId="8c84fa94-04c1-424b-9868-57a2d4851a1d" />
    <TestEntry testId="a895df82-463a-a2b6-ad8b-a274c9067848" executionId="2d716fdf-4c56-4147-acf2-e9f3673fa290" testListId="8c84fa94-04c1-424b-9868-57a2d4851a1d" />
    <TestEntry testId="afda17c4-c99c-928d-34dd-80a6c20cf545" executionId="07648ade-8e3f-4cf2-b050-32ebbd466cca" testListId="8c84fa94-04c1-424b-9868-57a2d4851a1d" />
    <TestEntry testId="b5bfeebf-ac24-dcdc-8fce-2cae040ddc1d" executionId="fd40fbd4-0399-4f09-9433-a64bcb854d7e" testListId="8c84fa94-04c1-424b-9868-57a2d4851a1d" />
    <TestEntry testId="b708243d-5ab6-27ce-3048-8917d087e2a9" executionId="e363d771-4ddc-4daf-8b17-1974a3190c31" testListId="8c84fa94-04c1-424b-9868-57a2d4851a1d" />
    <TestEntry testId="c6f01cab-5280-79a0-ebb0-29985c551eea" executionId="7129e58d-646a-4877-9be2-4a7834c1a0e8" testListId="8c84fa94-04c1-424b-9868-57a2d4851a1d" />
    <TestEntry testId="cc86a5cd-42a8-b592-0036-a3731d20e030" executionId="56b29fc2-5c92-4687-bdd5-4f0facfc16bd" testListId="8c84fa94-04c1-424b-9868-57a2d4851a1d" />
    <TestEntry testId="e2877cf9-fedc-e307-0f16-ace1a1a36ba1" executionId="6c54d5c9-caaa-4d9d-903e-0eec5b25ae7f" testListId="8c84fa94-04c1-424b-9868-57a2d4851a1d" />
    <TestEntry testId="ef7f7df0-de88-60cf-b977-99e46f2b464b" executionId="1527b587-1eda-4aba-b37f-bf1749bfa00f" testListId="8c84fa94-04c1-424b-9868-57a2d4851a1d" />
    <TestEntry testId="fae19a73-99bd-53ac-f99f-381b85d84bbe" executionId="4492e3e1-254e-4d2f-8e05-cb48df83e0d5" testListId="8c84fa94-04c1-424b-9868-57a2d4851a1d" />
  </TestEntries>
  <Results>
    <UnitTestResult executionId="21d9d8db-fb2d-4d9a-8c1d-e241c5a595c6" testId="030601f2-6b82-81cd-5884-3e11afc7d590" testName="ResourcesConstructorTest" computerName="DEVELOPMENT" duration="00:00:00.0186777" startTime="2016-02-27T21:31:52.9687500-08:00" endTime="2016-02-27T21:31:53.3906250-08:00" testType="13cdc9d9-ddb5-4fa4-a97d-d965ccfc6d4b" outcome="Passed" testListId="8c84fa94-04c1-424b-9868-57a2d4851a1d" relativeResultsDirectory="21d9d8db-fb2d-4d9a-8c1d-e241c5a595c6">
    </UnitTestResult>
    <UnitTestResult executionId="cca8e176-7ec2-4634-ba29-3ccd6a8ad6f5" testId="092c4f37-68ca-29b8-1f11-1ef46c55261c" testName="MainTest" computerName="DEVELOPMENT" duration="00:00:00.0291011" startTime="2016-02-27T21:31:53.3906250-08:00" endTime="2016-02-27T21:31:53.4218750-08:00" testType="13cdc9d9-ddb5-4fa4-a97d-d965ccfc6d4b" outcome="Passed" testListId="8c84fa94-04c1-424b-9868-57a2d4851a1d" relativeResultsDirectory="cca8e176-7ec2-4634-ba29-3ccd6a8ad6f5">
    </UnitTestResult>
    <UnitTestResult executionId="d190383f-6356-42e6-a153-9a9d3540d0d1" testId="0a8a974d-6f34-82cf-a7df-a6e81db3ddd5" testName="TeamNameTest" computerName="DEVELOPMENT" duration="00:00:00.0011733" startTime="2016-02-27T21:31:53.4375000-08:00" endTime="2016-02-27T21:31:53.4375000-08:00" testType="13cdc9d9-ddb5-4fa4-a97d-d965ccfc6d4b" outcome="Passed" testListId="8c84fa94-04c1-424b-9868-57a2d4851a1d" relativeResultsDirectory="d190383f-6356-42e6-a153-9a9d3540d0d1">
    </UnitTestResult>
    <UnitTestResult executionId="e04b574e-2706-4cd4-b6ce-6f77e7591134" testId="2bda32e4-2fee-ecf7-0231-9ba9a2e662af" testName="ConnectTest" computerName="DEVELOPMENT" duration="00:00:00.2710875" startTime="2016-02-27T21:31:53.4375000-08:00" endTime="2016-02-27T21:31:53.7187500-08:00" testType="13cdc9d9-ddb5-4fa4-a97d-d965ccfc6d4b" outcome="Passed" testListId="8c84fa94-04c1-424b-9868-57a2d4851a1d" relativeResultsDirectory="e04b574e-2706-4cd4-b6ce-6f77e7591134">
    </UnitTestResult>
    <UnitTestResult executionId="9d58f1b3-de62-4d6d-9321-372dee98d7b0" testId="2e36de62-9d42-8acc-0d83-87d9d1d8541f" testName="GoalsScoredAgainstTest" computerName="DEVELOPMENT" duration="00:00:00.0048380" startTime="2016-02-27T21:31:53.7343750-08:00" endTime="2016-02-27T21:31:53.7343750-08:00" testType="13cdc9d9-ddb5-4fa4-a97d-d965ccfc6d4b" outcome="Passed" testListId="8c84fa94-04c1-424b-9868-57a2d4851a1d" relativeResultsDirectory="9d58f1b3-de62-4d6d-9321-372dee98d7b0">
    </UnitTestResult>
    <UnitTestResult executionId="aa340198-710d-4bd6-80d0-e43b6ca81bc2" testId="368fab1a-65bd-e24a-c993-455b0cbd7bd0" testName="SettingsConstructorTest" computerName="DEVELOPMENT" duration="00:00:00.0013007" startTime="2016-02-27T21:31:53.7343750-08:00" endTime="2016-02-27T21:31:53.7500000-08:00" testType="13cdc9d9-ddb5-4fa4-a97d-d965ccfc6d4b" outcome="Passed" testListId="8c84fa94-04c1-424b-9868-57a2d4851a1d" relativeResultsDirectory="aa340198-710d-4bd6-80d0-e43b6ca81bc2">
    </UnitTestResult>
    <UnitTestResult executionId="7c945c63-d531-4eaf-b5be-879d15af5387" testId="36bd3582-cdf8-045a-d2d0-5769b83d42fd" testName="wpfFootBallExerciseConstructorTest" computerName="DEVELOPMENT" duration="00:00:00.0083471" startTime="2016-02-27T21:31:53.7500000-08:00" endTime="2016-02-27T21:31:53.7656250-08:00" testType="13cdc9d9-ddb5-4fa4-a97d-d965ccfc6d4b" outcome="Passed" testListId="8c84fa94-04c1-424b-9868-57a2d4851a1d" relativeResultsDirectory="7c945c63-d531-4eaf-b5be-879d15af5387">
    </UnitTestResult>
    <UnitTestResult executionId="fbae3b8d-52e2-45e7-917b-43de1378866a" testId="3da7db19-8cee-d201-d71e-f46bcae2fb27" testName="GoalScoredAgainstPropertyTest" computerName="DEVELOPMENT" duration="00:00:00.0050606" startTime="2016-02-27T21:31:53.7656250-08:00" endTime="2016-02-27T21:31:53.7812500-08:00" testType="13cdc9d9-ddb5-4fa4-a97d-d965ccfc6d4b" outcome="Passed" testListId="8c84fa94-04c1-424b-9868-57a2d4851a1d" relativeResultsDirectory="fbae3b8d-52e2-45e7-917b-43de1378866a">
    </UnitTestResult>
    <UnitTestResult executionId="3fdc7abf-e4be-41dd-9747-1a090b451e9e" testId="440f63f4-3038-3a01-6ba8-082936f566f3" testName="ColumnExtractionRoutineTest" computerName="DEVELOPMENT" duration="00:00:00.0487204" startTime="2016-02-27T21:31:53.7812500-08:00" endTime="2016-02-27T21:31:53.8437500-08:00" testType="13cdc9d9-ddb5-4fa4-a97d-d965ccfc6d4b" outcome="Passed" testListId="8c84fa94-04c1-424b-9868-57a2d4851a1d" relativeResultsDirectory="3fdc7abf-e4be-41dd-9747-1a090b451e9e">
    </UnitTestResult>
    <UnitTestResult executionId="2057850a-68d3-4c54-b99c-a08298d810fb" testId="52845a88-16e2-1b0e-960f-006ca2de93f2" testName="DifferenceGoalsScoredForAgainstTest" computerName="DEVELOPMENT" duration="00:00:00.0042684" startTime="2016-02-27T21:31:53.8437500-08:00" endTime="2016-02-27T21:31:53.8593750-08:00" testType="13cdc9d9-ddb5-4fa4-a97d-d965ccfc6d4b" outcome="Passed" testListId="8c84fa94-04c1-424b-9868-57a2d4851a1d" relativeResultsDirectory="2057850a-68d3-4c54-b99c-a08298d810fb">
    </UnitTestResult>
    <UnitTestResult executionId="2171abb1-7a00-4120-9c70-f3ad3d408c17" testId="5edf6a9f-50d8-1f37-9cdc-741dbf1daaa0" testName="TeamNamePropertyTest" computerName="DEVELOPMENT" duration="00:00:00.0014317" startTime="2016-02-27T21:31:53.8593750-08:00" endTime="2016-02-27T21:31:53.8750000-08:00" testType="13cdc9d9-ddb5-4fa4-a97d-d965ccfc6d4b" outcome="Passed" testListId="8c84fa94-04c1-424b-9868-57a2d4851a1d" relativeResultsDirectory="2171abb1-7a00-4120-9c70-f3ad3d408c17">
    </UnitTestResult>
    <UnitTestResult executionId="01a5b319-3140-4223-92a9-46270d347217" testId="69194a15-7526-c60b-3a55-b286429c507a" testName="ErrorMessagePropertyTest" computerName="DEVELOPMENT" duration="00:00:00.0039021" startTime="2016-02-27T21:31:53.8750000-08:00" endTime="2016-02-27T21:31:53.8906250-08:00" testType="13cdc9d9-ddb5-4fa4-a97d-d965ccfc6d4b" outcome="Passed" testListId="8c84fa94-04c1-424b-9868-57a2d4851a1d" relativeResultsDirectory="01a5b319-3140-4223-92a9-46270d347217">
    </UnitTestResult>
    <UnitTestResult executionId="32921c1d-4b1c-41c5-960e-07ad823f3da4" testId="6ddc06d6-b1a4-36f3-9958-dece23e8f9af" testName="CalculateTeamWithSmallestDifferenceTest" computerName="DEVELOPMENT" duration="00:00:00.0097386" startTime="2016-02-27T21:31:53.8906250-08:00" endTime="2016-02-27T21:31:53.9062500-08:00" testType="13cdc9d9-ddb5-4fa4-a97d-d965ccfc6d4b" outcome="Passed" testListId="8c84fa94-04c1-424b-9868-57a2d4851a1d" relativeResultsDirectory="32921c1d-4b1c-41c5-960e-07ad823f3da4">
    </UnitTestResult>
    <UnitTestResult executionId="c038a01f-c1d9-4bde-a6fa-c261b5b30437" testId="799f2608-69b6-7bce-689e-e97e25033d5f" testName="AppConstructorTest" computerName="DEVELOPMENT" duration="00:00:00.0041346" startTime="2016-02-27T21:31:53.9062500-08:00" endTime="2016-02-27T21:31:53.9218750-08:00" testType="13cdc9d9-ddb5-4fa4-a97d-d965ccfc6d4b" outcome="Passed" testListId="8c84fa94-04c1-424b-9868-57a2d4851a1d" relativeResultsDirectory="c038a01f-c1d9-4bde-a6fa-c261b5b30437">
    </UnitTestResult>
    <UnitTestResult executionId="c3b21816-745e-44af-b6ff-452be5a78d24" testId="7c9a03ac-d198-e8dd-f833-b9d3a55858dd" testName="GoalsScoredForTest" computerName="DEVELOPMENT" duration="00:00:00.0055356" startTime="2016-02-27T21:31:53.9218750-08:00" endTime="2016-02-27T21:31:53.9375000-08:00" testType="13cdc9d9-ddb5-4fa4-a97d-d965ccfc6d4b" outcome="Passed" testListId="8c84fa94-04c1-424b-9868-57a2d4851a1d" relativeResultsDirectory="c3b21816-745e-44af-b6ff-452be5a78d24">
    </UnitTestResult>
    <UnitTestResult executionId="6aad11f0-d680-4fc9-a6ef-6cf220be052d" testId="8f4ca596-9c19-5b6e-6cf5-8879fec1f8f3" testName="DefaultTest" computerName="DEVELOPMENT" duration="00:00:00.0039303" startTime="2016-02-27T21:31:53.9375000-08:00" endTime="2016-02-27T21:31:53.9531250-08:00" testType="13cdc9d9-ddb5-4fa4-a97d-d965ccfc6d4b" outcome="Passed" testListId="8c84fa94-04c1-424b-9868-57a2d4851a1d" relativeResultsDirectory="6aad11f0-d680-4fc9-a6ef-6cf220be052d">
    </UnitTestResult>
    <UnitTestResult executionId="e4efa61f-62b1-4366-b497-c138d60ee7b0" testId="a43d1f53-7027-f6d8-4a6b-8f3c9a0093d0" testName="InitializeComponentTest" computerName="DEVELOPMENT" duration="00:00:00.0073749" startTime="2016-02-27T21:31:53.9531250-08:00" endTime="2016-02-27T21:31:53.9531250-08:00" testType="13cdc9d9-ddb5-4fa4-a97d-d965ccfc6d4b" outcome="Passed" testListId="8c84fa94-04c1-424b-9868-57a2d4851a1d" relativeResultsDirectory="e4efa61f-62b1-4366-b497-c138d60ee7b0">
    </UnitTestResult>
    <UnitTestResult executionId="f33fd536-df40-499f-a18e-306875a0ee33" testId="a6e177b9-cbef-4dfd-838b-bf97d961f6f2" testName="FootballExerciseViewModelConstructorTest" computerName="DEVELOPMENT" duration="00:00:00.0054660" startTime="2016-02-27T21:31:53.9843750-08:00" endTime="2016-02-27T21:31:54.0000000-08:00" testType="13cdc9d9-ddb5-4fa4-a97d-d965ccfc6d4b" outcome="Passed" testListId="8c84fa94-04c1-424b-9868-57a2d4851a1d" relativeResultsDirectory="f33fd536-df40-499f-a18e-306875a0ee33">
    </UnitTestResult>
    <UnitTestResult executionId="2d716fdf-4c56-4147-acf2-e9f3673fa290" testId="a895df82-463a-a2b6-ad8b-a274c9067848" testName="CultureTest" computerName="DEVELOPMENT" duration="00:00:00.0038124" startTime="2016-02-27T21:31:54.0000000-08:00" endTime="2016-02-27T21:31:54.0156250-08:00" testType="13cdc9d9-ddb5-4fa4-a97d-d965ccfc6d4b" outcome="Passed" testListId="8c84fa94-04c1-424b-9868-57a2d4851a1d" relativeResultsDirectory="2d716fdf-4c56-4147-acf2-e9f3673fa290">
    </UnitTestResult>
    <UnitTestResult executionId="07648ade-8e3f-4cf2-b050-32ebbd466cca" testId="afda17c4-c99c-928d-34dd-80a6c20cf545" testName="SelectTest" computerName="DEVELOPMENT" duration="00:00:00.0062393" startTime="2016-02-27T21:31:54.0156250-08:00" endTime="2016-02-27T21:31:54.0312500-08:00" testType="13cdc9d9-ddb5-4fa4-a97d-d965ccfc6d4b" outcome="Passed" testListId="8c84fa94-04c1-424b-9868-57a2d4851a1d" relativeResultsDirectory="07648ade-8e3f-4cf2-b050-32ebbd466cca">
    </UnitTestResult>
    <UnitTestResult executionId="fd40fbd4-0399-4f09-9433-a64bcb854d7e" testId="b5bfeebf-ac24-dcdc-8fce-2cae040ddc1d" testName="RepositoryConstructorTest" computerName="DEVELOPMENT" duration="00:00:00.0035535" startTime="2016-02-27T21:31:54.0937500-08:00" endTime="2016-02-27T21:31:54.0937500-08:00" testType="13cdc9d9-ddb5-4fa4-a97d-d965ccfc6d4b" outcome="Passed" testListId="8c84fa94-04c1-424b-9868-57a2d4851a1d" relativeResultsDirectory="fd40fbd4-0399-4f09-9433-a64bcb854d7e">
    </UnitTestResult>
    <UnitTestResult executionId="e363d771-4ddc-4daf-8b17-1974a3190c31" testId="b708243d-5ab6-27ce-3048-8917d087e2a9" testName="InitializeComponentTest" computerName="DEVELOPMENT" duration="00:00:00.0222894" startTime="2016-02-27T21:31:54.0937500-08:00" endTime="2016-02-27T21:31:54.1250000-08:00" testType="13cdc9d9-ddb5-4fa4-a97d-d965ccfc6d4b" outcome="Passed" testListId="8c84fa94-04c1-424b-9868-57a2d4851a1d" relativeResultsDirectory="e363d771-4ddc-4daf-8b17-1974a3190c31">
    </UnitTestResult>
    <UnitTestResult executionId="7129e58d-646a-4877-9be2-4a7834c1a0e8" testId="c6f01cab-5280-79a0-ebb0-29985c551eea" testName="GoalScoredForPropertyTest" computerName="DEVELOPMENT" duration="00:00:00.0010621" startTime="2016-02-27T21:31:54.1718750-08:00" endTime="2016-02-27T21:31:54.1718750-08:00" testType="13cdc9d9-ddb5-4fa4-a97d-d965ccfc6d4b" outcome="Passed" testListId="8c84fa94-04c1-424b-9868-57a2d4851a1d" relativeResultsDirectory="7129e58d-646a-4877-9be2-4a7834c1a0e8">
    </UnitTestResult>
    <UnitTestResult executionId="56b29fc2-5c92-4687-bdd5-4f0facfc16bd" testId="cc86a5cd-42a8-b592-0036-a3731d20e030" testName="IsOpenPropertyTest" computerName="DEVELOPMENT" duration="00:00:00.0057493" startTime="2016-02-27T21:31:54.1875000-08:00" endTime="2016-02-27T21:31:54.1875000-08:00" testType="13cdc9d9-ddb5-4fa4-a97d-d965ccfc6d4b" outcome="Passed" testListId="8c84fa94-04c1-424b-9868-57a2d4851a1d" relativeResultsDirectory="56b29fc2-5c92-4687-bdd5-4f0facfc16bd">
    </UnitTestResult>
    <UnitTestResult executionId="6c54d5c9-caaa-4d9d-903e-0eec5b25ae7f" testId="e2877cf9-fedc-e307-0f16-ace1a1a36ba1" testName="ResourceManagerTest" computerName="DEVELOPMENT" duration="00:00:00.0055979" startTime="2016-02-27T21:31:54.2031250-08:00" endTime="2016-02-27T21:31:54.2031250-08:00" testType="13cdc9d9-ddb5-4fa4-a97d-d965ccfc6d4b" outcome="Passed" testListId="8c84fa94-04c1-424b-9868-57a2d4851a1d" relativeResultsDirectory="6c54d5c9-caaa-4d9d-903e-0eec5b25ae7f">
    </UnitTestResult>
    <UnitTestResult executionId="1527b587-1eda-4aba-b37f-bf1749bfa00f" testId="ef7f7df0-de88-60cf-b977-99e46f2b464b" testName="FootBallModelConstructorTest" computerName="DEVELOPMENT" duration="00:00:00.0054224" startTime="2016-02-27T21:31:54.2187500-08:00" endTime="2016-02-27T21:31:54.2187500-08:00" testType="13cdc9d9-ddb5-4fa4-a97d-d965ccfc6d4b" outcome="Passed" testListId="8c84fa94-04c1-424b-9868-57a2d4851a1d" relativeResultsDirectory="1527b587-1eda-4aba-b37f-bf1749bfa00f">
    </UnitTestResult>
    <UnitTestResult executionId="4492e3e1-254e-4d2f-8e05-cb48df83e0d5" testId="fae19a73-99bd-53ac-f99f-381b85d84bbe" testName="DifferencePropertyTest" computerName="DEVELOPMENT" duration="00:00:00.0017172" startTime="2016-02-27T21:31:54.2187500-08:00" endTime="2016-02-27T21:31:54.2343750-08:00" testType="13cdc9d9-ddb5-4fa4-a97d-d965ccfc6d4b" outcome="Passed" testListId="8c84fa94-04c1-424b-9868-57a2d4851a1d" relativeResultsDirectory="4492e3e1-254e-4d2f-8e05-cb48df83e0d5">
    </UnitTestResult>
  </Results>
</TestRun>