﻿<?xml version="1.0" encoding="UTF-8"?>
<TestRun id="0c6defcb-91f5-47fd-b747-ed6270a001c4" name="Admin@DEVELOPMENT 2016-02-27 21:24:43" runUser="DEVELOPMENT\Admin" xmlns="http://microsoft.com/schemas/VisualStudio/TeamTest/2010">
  <TestSettings name="Local" id="1d6239b9-3725-4107-9802-b3e02f79ef3e">
    <Description>These are default test settings for a local test run.</Description>
    <Deployment enabled="false" runDeploymentRoot="Admin_DEVELOPMENT 2016-02-27 21_24_43">
      <DeploymentItem filename="C:\WpfFootballExercise\WpfFootballExercise\bin\Release\WpfFootballExercise.exe" />
    </Deployment>
    <Execution>
      <TestTypeSpecific />
      <AgentRule name="Execution Agents">
      </AgentRule>
    </Execution>
  </TestSettings>
  <Times creation="2016-02-27T21:24:43.7812500-08:00" queuing="2016-02-27T21:24:45.0468750-08:00" start="2016-02-27T21:24:45.2656250-08:00" finish="2016-02-27T21:25:02.3437500-08:00" />
  <ResultSummary outcome="Error">
    <Counters total="27" executed="14" passed="13" error="0" failed="0" timeout="0" aborted="1" inconclusive="0" passedButRunAborted="0" notRunnable="0" notExecuted="13" disconnected="0" warning="0" completed="0" inProgress="0" pending="0" />
    <RunInfos>
      <RunInfo computerName="DEVELOPMENT" outcome="Warning" timestamp="2016-02-27T21:24:43.8593750-08:00">
        <Text>Deployment is currently disabled. The deployment item 'WpfFootballExercise.exe' on test 'WpfFootballExercise_TestProject.RepositoryTest.ColumnExtractionRoutineTest' was not deployed.</Text>
      </RunInfo>
      <RunInfo computerName="DEVELOPMENT" outcome="Error" timestamp="2016-02-27T21:25:02.3437500-08:00">
        <Text>Test host process exited unexpectedly.</Text>
      </RunInfo>
    </RunInfos>
  </ResultSummary>
  <TestDefinitions>
    <UnitTest name="ColumnExtractionRoutineTest" storage="c:\wpffootballexercise\wpffootballexercise_testproject\bin\release\wpffootballexercise_testproject.dll" id="440f63f4-3038-3a01-6ba8-082936f566f3">
      <DeploymentItems>
        <DeploymentItem filename="WpfFootballExercise.exe" />
      </DeploymentItems>
      <Execution id="9e4affc2-731b-4a0e-8be3-0c17f4eae76e" />
      <TestMethod codeBase="C:/WpfFootballExercise/WpfFootballExercise_TestProject/bin/Release/WpfFootballExercise_TestProject.DLL" adapterTypeName="Microsoft.VisualStudio.TestTools.TestTypes.Unit.UnitTestAdapter, Microsoft.VisualStudio.QualityTools.Tips.UnitTest.Adapter, Version=10.0.0.0, Culture=neutral, PublicKeyToken=b03f5f7f11d50a3a" className="WpfFootballExercise_TestProject.RepositoryTest, WpfFootballExercise_TestProject, Version=1.0.0.0, Culture=neutral, PublicKeyToken=null" name="ColumnExtractionRoutineTest" />
    </UnitTest>
    <UnitTest name="GoalScoredAgainstPropertyTest" storage="c:\wpffootballexercise\wpffootballexercise_testproject\bin\release\wpffootballexercise_testproject.dll" id="3da7db19-8cee-d201-d71e-f46bcae2fb27">
      <Execution id="cdfd2619-27d9-478a-914f-8e027c1760ae" />
      <TestMethod codeBase="C:/WpfFootballExercise/WpfFootballExercise_TestProject/bin/Release/WpfFootballExercise_TestProject.DLL" adapterTypeName="Microsoft.VisualStudio.TestTools.TestTypes.Unit.UnitTestAdapter, Microsoft.VisualStudio.QualityTools.Tips.UnitTest.Adapter, Version=10.0.0.0, Culture=neutral, PublicKeyToken=b03f5f7f11d50a3a" className="WpfFootballExercise_TestProject.FootballExerciseViewModelTest, WpfFootballExercise_TestProject, Version=1.0.0.0, Culture=neutral, PublicKeyToken=null" name="GoalScoredAgainstPropertyTest" />
    </UnitTest>
    <UnitTest name="DefaultTest" storage="c:\wpffootballexercise\wpffootballexercise_testproject\bin\release\wpffootballexercise_testproject.dll" id="8f4ca596-9c19-5b6e-6cf5-8879fec1f8f3">
      <Execution id="d56fc403-edfe-43d2-a094-44677e88eaba" />
      <TestMethod codeBase="C:/WpfFootballExercise/WpfFootballExercise_TestProject/bin/Release/WpfFootballExercise_TestProject.DLL" adapterTypeName="Microsoft.VisualStudio.TestTools.TestTypes.Unit.UnitTestAdapter, Microsoft.VisualStudio.QualityTools.Tips.UnitTest.Adapter, Version=10.0.0.0, Culture=neutral, PublicKeyToken=b03f5f7f11d50a3a" className="WpfFootballExercise_TestProject.SettingsTest, WpfFootballExercise_TestProject, Version=1.0.0.0, Culture=neutral, PublicKeyToken=null" name="DefaultTest" />
    </UnitTest>
    <UnitTest name="CalculateTeamWithSmallestDifferenceTest" storage="c:\wpffootballexercise\wpffootballexercise_testproject\bin\release\wpffootballexercise_testproject.dll" id="6ddc06d6-b1a4-36f3-9958-dece23e8f9af">
      <DeploymentItems>
        <DeploymentItem filename="WpfFootballExercise.exe" />
      </DeploymentItems>
      <Execution id="0c857605-ea62-4f3e-bd00-ecb98baf4f21" />
      <TestMethod codeBase="C:/WpfFootballExercise/WpfFootballExercise_TestProject/bin/Release/WpfFootballExercise_TestProject.DLL" adapterTypeName="Microsoft.VisualStudio.TestTools.TestTypes.Unit.UnitTestAdapter, Microsoft.VisualStudio.QualityTools.Tips.UnitTest.Adapter, Version=10.0.0.0, Culture=neutral, PublicKeyToken=b03f5f7f11d50a3a" className="WpfFootballExercise_TestProject.FootballExerciseViewModelTest, WpfFootballExercise_TestProject, Version=1.0.0.0, Culture=neutral, PublicKeyToken=null" name="CalculateTeamWithSmallestDifferenceTest" />
    </UnitTest>
    <UnitTest name="IsOpenPropertyTest" storage="c:\wpffootballexercise\wpffootballexercise_testproject\bin\release\wpffootballexercise_testproject.dll" id="cc86a5cd-42a8-b592-0036-a3731d20e030">
      <Execution id="f48ce413-2968-44c1-b3d1-6d53aed2a914" />
      <TestMethod codeBase="C:/WpfFootballExercise/WpfFootballExercise_TestProject/bin/Release/WpfFootballExercise_TestProject.DLL" adapterTypeName="Microsoft.VisualStudio.TestTools.TestTypes.Unit.UnitTestAdapter, Microsoft.VisualStudio.QualityTools.Tips.UnitTest.Adapter, Version=10.0.0.0, Culture=neutral, PublicKeyToken=b03f5f7f11d50a3a" className="WpfFootballExercise_TestProject.FootballExerciseViewModelTest, WpfFootballExercise_TestProject, Version=1.0.0.0, Culture=neutral, PublicKeyToken=null" name="IsOpenPropertyTest" />
    </UnitTest>
    <UnitTest name="ConnectTest" storage="c:\wpffootballexercise\wpffootballexercise_testproject\bin\release\wpffootballexercise_testproject.dll" id="2bda32e4-2fee-ecf7-0231-9ba9a2e662af">
      <DeploymentItems>
        <DeploymentItem filename="WpfFootballExercise.exe" />
      </DeploymentItems>
      <Execution id="4b7721c2-720c-4318-96f9-42e5aa79ee4f" />
      <TestMethod codeBase="C:/WpfFootballExercise/WpfFootballExercise_TestProject/bin/Release/WpfFootballExercise_TestProject.DLL" adapterTypeName="Microsoft.VisualStudio.TestTools.TestTypes.Unit.UnitTestAdapter, Microsoft.VisualStudio.QualityTools.Tips.UnitTest.Adapter, Version=10.0.0.0, Culture=neutral, PublicKeyToken=b03f5f7f11d50a3a" className="WpfFootballExercise_TestProject.wpfFootBallExerciseTest, WpfFootballExercise_TestProject, Version=1.0.0.0, Culture=neutral, PublicKeyToken=null" name="ConnectTest" />
    </UnitTest>
    <UnitTest name="TeamNameTest" storage="c:\wpffootballexercise\wpffootballexercise_testproject\bin\release\wpffootballexercise_testproject.dll" id="0a8a974d-6f34-82cf-a7df-a6e81db3ddd5">
      <Execution id="57f36e53-77fb-45b7-bbfd-15cac895b7c4" />
      <TestMethod codeBase="C:/WpfFootballExercise/WpfFootballExercise_TestProject/bin/Release/WpfFootballExercise_TestProject.DLL" adapterTypeName="Microsoft.VisualStudio.TestTools.TestTypes.Unit.UnitTestAdapter, Microsoft.VisualStudio.QualityTools.Tips.UnitTest.Adapter, Version=10.0.0.0, Culture=neutral, PublicKeyToken=b03f5f7f11d50a3a" className="WpfFootballExercise_TestProject.FootBallModelTest, WpfFootballExercise_TestProject, Version=1.0.0.0, Culture=neutral, PublicKeyToken=null" name="TeamNameTest" />
    </UnitTest>
    <UnitTest name="InitializeComponentTest" storage="c:\wpffootballexercise\wpffootballexercise_testproject\bin\release\wpffootballexercise_testproject.dll" id="a43d1f53-7027-f6d8-4a6b-8f3c9a0093d0">
      <Execution id="dc4a5465-efb2-49f0-a5d3-4b9e1e292bfe" />
      <TestMethod codeBase="C:/WpfFootballExercise/WpfFootballExercise_TestProject/bin/Release/WpfFootballExercise_TestProject.DLL" adapterTypeName="Microsoft.VisualStudio.TestTools.TestTypes.Unit.UnitTestAdapter, Microsoft.VisualStudio.QualityTools.Tips.UnitTest.Adapter, Version=10.0.0.0, Culture=neutral, PublicKeyToken=b03f5f7f11d50a3a" className="WpfFootballExercise_TestProject.AppTest, WpfFootballExercise_TestProject, Version=1.0.0.0, Culture=neutral, PublicKeyToken=null" name="InitializeComponentTest" />
    </UnitTest>
    <UnitTest name="GoalsScoredAgainstTest" storage="c:\wpffootballexercise\wpffootballexercise_testproject\bin\release\wpffootballexercise_testproject.dll" id="2e36de62-9d42-8acc-0d83-87d9d1d8541f">
      <Execution id="88c1af19-2ed8-4c3e-9225-c3268fd359fa" />
      <TestMethod codeBase="C:/WpfFootballExercise/WpfFootballExercise_TestProject/bin/Release/WpfFootballExercise_TestProject.DLL" adapterTypeName="Microsoft.VisualStudio.TestTools.TestTypes.Unit.UnitTestAdapter, Microsoft.VisualStudio.QualityTools.Tips.UnitTest.Adapter, Version=10.0.0.0, Culture=neutral, PublicKeyToken=b03f5f7f11d50a3a" className="WpfFootballExercise_TestProject.FootBallModelTest, WpfFootballExercise_TestProject, Version=1.0.0.0, Culture=neutral, PublicKeyToken=null" name="GoalsScoredAgainstTest" />
    </UnitTest>
    <UnitTest name="TeamNamePropertyTest" storage="c:\wpffootballexercise\wpffootballexercise_testproject\bin\release\wpffootballexercise_testproject.dll" id="5edf6a9f-50d8-1f37-9cdc-741dbf1daaa0">
      <Execution id="e24a9761-7980-435e-a7dd-7465dcd3f339" />
      <TestMethod codeBase="C:/WpfFootballExercise/WpfFootballExercise_TestProject/bin/Release/WpfFootballExercise_TestProject.DLL" adapterTypeName="Microsoft.VisualStudio.TestTools.TestTypes.Unit.UnitTestAdapter, Microsoft.VisualStudio.QualityTools.Tips.UnitTest.Adapter, Version=10.0.0.0, Culture=neutral, PublicKeyToken=b03f5f7f11d50a3a" className="WpfFootballExercise_TestProject.FootballExerciseViewModelTest, WpfFootballExercise_TestProject, Version=1.0.0.0, Culture=neutral, PublicKeyToken=null" name="TeamNamePropertyTest" />
    </UnitTest>
    <UnitTest name="FootballExerciseViewModelConstructorTest" storage="c:\wpffootballexercise\wpffootballexercise_testproject\bin\release\wpffootballexercise_testproject.dll" id="a6e177b9-cbef-4dfd-838b-bf97d961f6f2">
      <Execution id="f4fc8771-76a0-4292-a703-95fab3d58071" />
      <TestMethod codeBase="C:/WpfFootballExercise/WpfFootballExercise_TestProject/bin/Release/WpfFootballExercise_TestProject.DLL" adapterTypeName="Microsoft.VisualStudio.TestTools.TestTypes.Unit.UnitTestAdapter, Microsoft.VisualStudio.QualityTools.Tips.UnitTest.Adapter, Version=10.0.0.0, Culture=neutral, PublicKeyToken=b03f5f7f11d50a3a" className="WpfFootballExercise_TestProject.FootballExerciseViewModelTest, WpfFootballExercise_TestProject, Version=1.0.0.0, Culture=neutral, PublicKeyToken=null" name="FootballExerciseViewModelConstructorTest" />
    </UnitTest>
    <UnitTest name="ErrorMessagePropertyTest" storage="c:\wpffootballexercise\wpffootballexercise_testproject\bin\release\wpffootballexercise_testproject.dll" id="69194a15-7526-c60b-3a55-b286429c507a">
      <Execution id="8c9853af-0199-4c80-acce-7f464128a9f3" />
      <TestMethod codeBase="C:/WpfFootballExercise/WpfFootballExercise_TestProject/bin/Release/WpfFootballExercise_TestProject.DLL" adapterTypeName="Microsoft.VisualStudio.TestTools.TestTypes.Unit.UnitTestAdapter, Microsoft.VisualStudio.QualityTools.Tips.UnitTest.Adapter, Version=10.0.0.0, Culture=neutral, PublicKeyToken=b03f5f7f11d50a3a" className="WpfFootballExercise_TestProject.FootballExerciseViewModelTest, WpfFootballExercise_TestProject, Version=1.0.0.0, Culture=neutral, PublicKeyToken=null" name="ErrorMessagePropertyTest" />
    </UnitTest>
    <UnitTest name="GoalsScoredForTest" storage="c:\wpffootballexercise\wpffootballexercise_testproject\bin\release\wpffootballexercise_testproject.dll" id="7c9a03ac-d198-e8dd-f833-b9d3a55858dd">
      <Execution id="654dbbaa-fb6a-4caf-9e47-9cd486acac5f" />
      <TestMethod codeBase="C:/WpfFootballExercise/WpfFootballExercise_TestProject/bin/Release/WpfFootballExercise_TestProject.DLL" adapterTypeName="Microsoft.VisualStudio.TestTools.TestTypes.Unit.UnitTestAdapter, Microsoft.VisualStudio.QualityTools.Tips.UnitTest.Adapter, Version=10.0.0.0, Culture=neutral, PublicKeyToken=b03f5f7f11d50a3a" className="WpfFootballExercise_TestProject.FootBallModelTest, WpfFootballExercise_TestProject, Version=1.0.0.0, Culture=neutral, PublicKeyToken=null" name="GoalsScoredForTest" />
    </UnitTest>
    <UnitTest name="ResourcesConstructorTest" storage="c:\wpffootballexercise\wpffootballexercise_testproject\bin\release\wpffootballexercise_testproject.dll" id="030601f2-6b82-81cd-5884-3e11afc7d590">
      <Execution id="d618c803-c40b-4acf-bc5f-a3d969cf652c" />
      <TestMethod codeBase="C:/WpfFootballExercise/WpfFootballExercise_TestProject/bin/Release/WpfFootballExercise_TestProject.DLL" adapterTypeName="Microsoft.VisualStudio.TestTools.TestTypes.Unit.UnitTestAdapter, Microsoft.VisualStudio.QualityTools.Tips.UnitTest.Adapter, Version=10.0.0.0, Culture=neutral, PublicKeyToken=b03f5f7f11d50a3a" className="WpfFootballExercise_TestProject.ResourcesTest, WpfFootballExercise_TestProject, Version=1.0.0.0, Culture=neutral, PublicKeyToken=null" name="ResourcesConstructorTest" />
    </UnitTest>
    <UnitTest name="InitializeComponentTest" storage="c:\wpffootballexercise\wpffootballexercise_testproject\bin\release\wpffootballexercise_testproject.dll" id="b708243d-5ab6-27ce-3048-8917d087e2a9">
      <Execution id="9047c2b4-0ee0-4365-871d-df7818ad317d" />
      <TestMethod codeBase="C:/WpfFootballExercise/WpfFootballExercise_TestProject/bin/Release/WpfFootballExercise_TestProject.DLL" adapterTypeName="Microsoft.VisualStudio.TestTools.TestTypes.Unit.UnitTestAdapter, Microsoft.VisualStudio.QualityTools.Tips.UnitTest.Adapter, Version=10.0.0.0, Culture=neutral, PublicKeyToken=b03f5f7f11d50a3a" className="WpfFootballExercise_TestProject.wpfFootBallExerciseTest, WpfFootballExercise_TestProject, Version=1.0.0.0, Culture=neutral, PublicKeyToken=null" name="InitializeComponentTest" />
    </UnitTest>
    <UnitTest name="MainTest" storage="c:\wpffootballexercise\wpffootballexercise_testproject\bin\release\wpffootballexercise_testproject.dll" id="092c4f37-68ca-29b8-1f11-1ef46c55261c">
      <Execution id="dcf05ff3-477d-40b2-a59a-f029e014c07e" />
      <TestMethod codeBase="C:/WpfFootballExercise/WpfFootballExercise_TestProject/bin/Release/WpfFootballExercise_TestProject.DLL" adapterTypeName="Microsoft.VisualStudio.TestTools.TestTypes.Unit.UnitTestAdapter, Microsoft.VisualStudio.QualityTools.Tips.UnitTest.Adapter, Version=10.0.0.0, Culture=neutral, PublicKeyToken=b03f5f7f11d50a3a" className="WpfFootballExercise_TestProject.AppTest, WpfFootballExercise_TestProject, Version=1.0.0.0, Culture=neutral, PublicKeyToken=null" name="MainTest" />
    </UnitTest>
    <UnitTest name="AppConstructorTest" storage="c:\wpffootballexercise\wpffootballexercise_testproject\bin\release\wpffootballexercise_testproject.dll" id="799f2608-69b6-7bce-689e-e97e25033d5f">
      <Execution id="f8cf7ae0-51d8-4b91-a050-89796962815f" />
      <TestMethod codeBase="C:/WpfFootballExercise/WpfFootballExercise_TestProject/bin/Release/WpfFootballExercise_TestProject.DLL" adapterTypeName="Microsoft.VisualStudio.TestTools.TestTypes.Unit.UnitTestAdapter, Microsoft.VisualStudio.QualityTools.Tips.UnitTest.Adapter, Version=10.0.0.0, Culture=neutral, PublicKeyToken=b03f5f7f11d50a3a" className="WpfFootballExercise_TestProject.AppTest, WpfFootballExercise_TestProject, Version=1.0.0.0, Culture=neutral, PublicKeyToken=null" name="AppConstructorTest" />
    </UnitTest>
    <UnitTest name="SettingsConstructorTest" storage="c:\wpffootballexercise\wpffootballexercise_testproject\bin\release\wpffootballexercise_testproject.dll" id="368fab1a-65bd-e24a-c993-455b0cbd7bd0">
      <Execution id="6f2a206e-9988-4345-8d97-ace0b7f26da2" />
      <TestMethod codeBase="C:/WpfFootballExercise/WpfFootballExercise_TestProject/bin/Release/WpfFootballExercise_TestProject.DLL" adapterTypeName="Microsoft.VisualStudio.TestTools.TestTypes.Unit.UnitTestAdapter, Microsoft.VisualStudio.QualityTools.Tips.UnitTest.Adapter, Version=10.0.0.0, Culture=neutral, PublicKeyToken=b03f5f7f11d50a3a" className="WpfFootballExercise_TestProject.SettingsTest, WpfFootballExercise_TestProject, Version=1.0.0.0, Culture=neutral, PublicKeyToken=null" name="SettingsConstructorTest" />
    </UnitTest>
    <UnitTest name="RepositoryConstructorTest" storage="c:\wpffootballexercise\wpffootballexercise_testproject\bin\release\wpffootballexercise_testproject.dll" id="b5bfeebf-ac24-dcdc-8fce-2cae040ddc1d">
      <Execution id="392219b9-f540-4bcb-80f4-9f3da8cf16d8" />
      <TestMethod codeBase="C:/WpfFootballExercise/WpfFootballExercise_TestProject/bin/Release/WpfFootballExercise_TestProject.DLL" adapterTypeName="Microsoft.VisualStudio.TestTools.TestTypes.Unit.UnitTestAdapter, Microsoft.VisualStudio.QualityTools.Tips.UnitTest.Adapter, Version=10.0.0.0, Culture=neutral, PublicKeyToken=b03f5f7f11d50a3a" className="WpfFootballExercise_TestProject.RepositoryTest, WpfFootballExercise_TestProject, Version=1.0.0.0, Culture=neutral, PublicKeyToken=null" name="RepositoryConstructorTest" />
    </UnitTest>
    <UnitTest name="FootBallModelConstructorTest" storage="c:\wpffootballexercise\wpffootballexercise_testproject\bin\release\wpffootballexercise_testproject.dll" id="ef7f7df0-de88-60cf-b977-99e46f2b464b">
      <Execution id="b5047c32-e419-427c-b039-3f5296b4b4b7" />
      <TestMethod codeBase="C:/WpfFootballExercise/WpfFootballExercise_TestProject/bin/Release/WpfFootballExercise_TestProject.DLL" adapterTypeName="Microsoft.VisualStudio.TestTools.TestTypes.Unit.UnitTestAdapter, Microsoft.VisualStudio.QualityTools.Tips.UnitTest.Adapter, Version=10.0.0.0, Culture=neutral, PublicKeyToken=b03f5f7f11d50a3a" className="WpfFootballExercise_TestProject.FootBallModelTest, WpfFootballExercise_TestProject, Version=1.0.0.0, Culture=neutral, PublicKeyToken=null" name="FootBallModelConstructorTest" />
    </UnitTest>
    <UnitTest name="ResourceManagerTest" storage="c:\wpffootballexercise\wpffootballexercise_testproject\bin\release\wpffootballexercise_testproject.dll" id="e2877cf9-fedc-e307-0f16-ace1a1a36ba1">
      <Execution id="00f64dcc-b110-47f1-9af4-971def46f3e9" />
      <TestMethod codeBase="C:/WpfFootballExercise/WpfFootballExercise_TestProject/bin/Release/WpfFootballExercise_TestProject.DLL" adapterTypeName="Microsoft.VisualStudio.TestTools.TestTypes.Unit.UnitTestAdapter, Microsoft.VisualStudio.QualityTools.Tips.UnitTest.Adapter, Version=10.0.0.0, Culture=neutral, PublicKeyToken=b03f5f7f11d50a3a" className="WpfFootballExercise_TestProject.ResourcesTest, WpfFootballExercise_TestProject, Version=1.0.0.0, Culture=neutral, PublicKeyToken=null" name="ResourceManagerTest" />
    </UnitTest>
    <UnitTest name="CultureTest" storage="c:\wpffootballexercise\wpffootballexercise_testproject\bin\release\wpffootballexercise_testproject.dll" id="a895df82-463a-a2b6-ad8b-a274c9067848">
      <Execution id="35584880-be0c-422f-94c2-db0ea7d35b2f" />
      <TestMethod codeBase="C:/WpfFootballExercise/WpfFootballExercise_TestProject/bin/Release/WpfFootballExercise_TestProject.DLL" adapterTypeName="Microsoft.VisualStudio.TestTools.TestTypes.Unit.UnitTestAdapter, Microsoft.VisualStudio.QualityTools.Tips.UnitTest.Adapter, Version=10.0.0.0, Culture=neutral, PublicKeyToken=b03f5f7f11d50a3a" className="WpfFootballExercise_TestProject.ResourcesTest, WpfFootballExercise_TestProject, Version=1.0.0.0, Culture=neutral, PublicKeyToken=null" name="CultureTest" />
    </UnitTest>
    <UnitTest name="wpfFootBallExerciseConstructorTest" storage="c:\wpffootballexercise\wpffootballexercise_testproject\bin\release\wpffootballexercise_testproject.dll" id="36bd3582-cdf8-045a-d2d0-5769b83d42fd">
      <Execution id="914e05fa-73ae-4f8d-b814-a4ea9020b961" />
      <TestMethod codeBase="C:/WpfFootballExercise/WpfFootballExercise_TestProject/bin/Release/WpfFootballExercise_TestProject.DLL" adapterTypeName="Microsoft.VisualStudio.TestTools.TestTypes.Unit.UnitTestAdapter, Microsoft.VisualStudio.QualityTools.Tips.UnitTest.Adapter, Version=10.0.0.0, Culture=neutral, PublicKeyToken=b03f5f7f11d50a3a" className="WpfFootballExercise_TestProject.wpfFootBallExerciseTest, WpfFootballExercise_TestProject, Version=1.0.0.0, Culture=neutral, PublicKeyToken=null" name="wpfFootBallExerciseConstructorTest" />
    </UnitTest>
    <UnitTest name="SelectTest" storage="c:\wpffootballexercise\wpffootballexercise_testproject\bin\release\wpffootballexercise_testproject.dll" id="afda17c4-c99c-928d-34dd-80a6c20cf545">
      <Execution id="1f08ad43-a97a-49f3-9177-9ef7315dc6fc" />
      <TestMethod codeBase="C:/WpfFootballExercise/WpfFootballExercise_TestProject/bin/Release/WpfFootballExercise_TestProject.DLL" adapterTypeName="Microsoft.VisualStudio.TestTools.TestTypes.Unit.UnitTestAdapter, Microsoft.VisualStudio.QualityTools.Tips.UnitTest.Adapter, Version=10.0.0.0, Culture=neutral, PublicKeyToken=b03f5f7f11d50a3a" className="WpfFootballExercise_TestProject.RepositoryTest, WpfFootballExercise_TestProject, Version=1.0.0.0, Culture=neutral, PublicKeyToken=null" name="SelectTest" />
    </UnitTest>
    <UnitTest name="GoalScoredForPropertyTest" storage="c:\wpffootballexercise\wpffootballexercise_testproject\bin\release\wpffootballexercise_testproject.dll" id="c6f01cab-5280-79a0-ebb0-29985c551eea">
      <Execution id="6a7b38e3-f02c-476b-bff4-72719a04046b" />
      <TestMethod codeBase="C:/WpfFootballExercise/WpfFootballExercise_TestProject/bin/Release/WpfFootballExercise_TestProject.DLL" adapterTypeName="Microsoft.VisualStudio.TestTools.TestTypes.Unit.UnitTestAdapter, Microsoft.VisualStudio.QualityTools.Tips.UnitTest.Adapter, Version=10.0.0.0, Culture=neutral, PublicKeyToken=b03f5f7f11d50a3a" className="WpfFootballExercise_TestProject.FootballExerciseViewModelTest, WpfFootballExercise_TestProject, Version=1.0.0.0, Culture=neutral, PublicKeyToken=null" name="GoalScoredForPropertyTest" />
    </UnitTest>
    <UnitTest name="DifferencePropertyTest" storage="c:\wpffootballexercise\wpffootballexercise_testproject\bin\release\wpffootballexercise_testproject.dll" id="fae19a73-99bd-53ac-f99f-381b85d84bbe">
      <Execution id="e495c7ba-eb7e-446a-beb9-03c76fdc5155" />
      <TestMethod codeBase="C:/WpfFootballExercise/WpfFootballExercise_TestProject/bin/Release/WpfFootballExercise_TestProject.DLL" adapterTypeName="Microsoft.VisualStudio.TestTools.TestTypes.Unit.UnitTestAdapter, Microsoft.VisualStudio.QualityTools.Tips.UnitTest.Adapter, Version=10.0.0.0, Culture=neutral, PublicKeyToken=b03f5f7f11d50a3a" className="WpfFootballExercise_TestProject.FootballExerciseViewModelTest, WpfFootballExercise_TestProject, Version=1.0.0.0, Culture=neutral, PublicKeyToken=null" name="DifferencePropertyTest" />
    </UnitTest>
    <UnitTest name="DifferenceGoalsScoredForAgainstTest" storage="c:\wpffootballexercise\wpffootballexercise_testproject\bin\release\wpffootballexercise_testproject.dll" id="52845a88-16e2-1b0e-960f-006ca2de93f2">
      <Execution id="9666c1f9-b846-4ff4-8f02-7aed6a2cd5c5" />
      <TestMethod codeBase="C:/WpfFootballExercise/WpfFootballExercise_TestProject/bin/Release/WpfFootballExercise_TestProject.DLL" adapterTypeName="Microsoft.VisualStudio.TestTools.TestTypes.Unit.UnitTestAdapter, Microsoft.VisualStudio.QualityTools.Tips.UnitTest.Adapter, Version=10.0.0.0, Culture=neutral, PublicKeyToken=b03f5f7f11d50a3a" className="WpfFootballExercise_TestProject.FootBallModelTest, WpfFootballExercise_TestProject, Version=1.0.0.0, Culture=neutral, PublicKeyToken=null" name="DifferenceGoalsScoredForAgainstTest" />
    </UnitTest>
  </TestDefinitions>
  <TestLists>
    <TestList name="Results Not in a List" id="8c84fa94-04c1-424b-9868-57a2d4851a1d" />
    <TestList name="All Loaded Results" id="19431567-8539-422a-85d7-44ee4e166bda" />
  </TestLists>
  <TestEntries>
    <TestEntry testId="030601f2-6b82-81cd-5884-3e11afc7d590" executionId="d618c803-c40b-4acf-bc5f-a3d969cf652c" testListId="8c84fa94-04c1-424b-9868-57a2d4851a1d" />
    <TestEntry testId="092c4f37-68ca-29b8-1f11-1ef46c55261c" executionId="dcf05ff3-477d-40b2-a59a-f029e014c07e" testListId="8c84fa94-04c1-424b-9868-57a2d4851a1d" />
    <TestEntry testId="0a8a974d-6f34-82cf-a7df-a6e81db3ddd5" executionId="57f36e53-77fb-45b7-bbfd-15cac895b7c4" testListId="8c84fa94-04c1-424b-9868-57a2d4851a1d" />
    <TestEntry testId="2bda32e4-2fee-ecf7-0231-9ba9a2e662af" executionId="4b7721c2-720c-4318-96f9-42e5aa79ee4f" testListId="8c84fa94-04c1-424b-9868-57a2d4851a1d" />
    <TestEntry testId="2e36de62-9d42-8acc-0d83-87d9d1d8541f" executionId="88c1af19-2ed8-4c3e-9225-c3268fd359fa" testListId="8c84fa94-04c1-424b-9868-57a2d4851a1d" />
    <TestEntry testId="368fab1a-65bd-e24a-c993-455b0cbd7bd0" executionId="6f2a206e-9988-4345-8d97-ace0b7f26da2" testListId="8c84fa94-04c1-424b-9868-57a2d4851a1d" />
    <TestEntry testId="36bd3582-cdf8-045a-d2d0-5769b83d42fd" executionId="914e05fa-73ae-4f8d-b814-a4ea9020b961" testListId="8c84fa94-04c1-424b-9868-57a2d4851a1d" />
    <TestEntry testId="3da7db19-8cee-d201-d71e-f46bcae2fb27" executionId="cdfd2619-27d9-478a-914f-8e027c1760ae" testListId="8c84fa94-04c1-424b-9868-57a2d4851a1d" />
    <TestEntry testId="440f63f4-3038-3a01-6ba8-082936f566f3" executionId="9e4affc2-731b-4a0e-8be3-0c17f4eae76e" testListId="8c84fa94-04c1-424b-9868-57a2d4851a1d" />
    <TestEntry testId="52845a88-16e2-1b0e-960f-006ca2de93f2" executionId="9666c1f9-b846-4ff4-8f02-7aed6a2cd5c5" testListId="8c84fa94-04c1-424b-9868-57a2d4851a1d" />
    <TestEntry testId="5edf6a9f-50d8-1f37-9cdc-741dbf1daaa0" executionId="e24a9761-7980-435e-a7dd-7465dcd3f339" testListId="8c84fa94-04c1-424b-9868-57a2d4851a1d" />
    <TestEntry testId="69194a15-7526-c60b-3a55-b286429c507a" executionId="8c9853af-0199-4c80-acce-7f464128a9f3" testListId="8c84fa94-04c1-424b-9868-57a2d4851a1d" />
    <TestEntry testId="6ddc06d6-b1a4-36f3-9958-dece23e8f9af" executionId="0c857605-ea62-4f3e-bd00-ecb98baf4f21" testListId="8c84fa94-04c1-424b-9868-57a2d4851a1d" />
    <TestEntry testId="799f2608-69b6-7bce-689e-e97e25033d5f" executionId="f8cf7ae0-51d8-4b91-a050-89796962815f" testListId="8c84fa94-04c1-424b-9868-57a2d4851a1d" />
    <TestEntry testId="7c9a03ac-d198-e8dd-f833-b9d3a55858dd" executionId="654dbbaa-fb6a-4caf-9e47-9cd486acac5f" testListId="8c84fa94-04c1-424b-9868-57a2d4851a1d" />
    <TestEntry testId="8f4ca596-9c19-5b6e-6cf5-8879fec1f8f3" executionId="d56fc403-edfe-43d2-a094-44677e88eaba" testListId="8c84fa94-04c1-424b-9868-57a2d4851a1d" />
    <TestEntry testId="a43d1f53-7027-f6d8-4a6b-8f3c9a0093d0" executionId="dc4a5465-efb2-49f0-a5d3-4b9e1e292bfe" testListId="8c84fa94-04c1-424b-9868-57a2d4851a1d" />
    <TestEntry testId="a6e177b9-cbef-4dfd-838b-bf97d961f6f2" executionId="f4fc8771-76a0-4292-a703-95fab3d58071" testListId="8c84fa94-04c1-424b-9868-57a2d4851a1d" />
    <TestEntry testId="a895df82-463a-a2b6-ad8b-a274c9067848" executionId="35584880-be0c-422f-94c2-db0ea7d35b2f" testListId="8c84fa94-04c1-424b-9868-57a2d4851a1d" />
    <TestEntry testId="afda17c4-c99c-928d-34dd-80a6c20cf545" executionId="1f08ad43-a97a-49f3-9177-9ef7315dc6fc" testListId="8c84fa94-04c1-424b-9868-57a2d4851a1d" />
    <TestEntry testId="b5bfeebf-ac24-dcdc-8fce-2cae040ddc1d" executionId="392219b9-f540-4bcb-80f4-9f3da8cf16d8" testListId="8c84fa94-04c1-424b-9868-57a2d4851a1d" />
    <TestEntry testId="b708243d-5ab6-27ce-3048-8917d087e2a9" executionId="9047c2b4-0ee0-4365-871d-df7818ad317d" testListId="8c84fa94-04c1-424b-9868-57a2d4851a1d" />
    <TestEntry testId="c6f01cab-5280-79a0-ebb0-29985c551eea" executionId="6a7b38e3-f02c-476b-bff4-72719a04046b" testListId="8c84fa94-04c1-424b-9868-57a2d4851a1d" />
    <TestEntry testId="cc86a5cd-42a8-b592-0036-a3731d20e030" executionId="f48ce413-2968-44c1-b3d1-6d53aed2a914" testListId="8c84fa94-04c1-424b-9868-57a2d4851a1d" />
    <TestEntry testId="e2877cf9-fedc-e307-0f16-ace1a1a36ba1" executionId="00f64dcc-b110-47f1-9af4-971def46f3e9" testListId="8c84fa94-04c1-424b-9868-57a2d4851a1d" />
    <TestEntry testId="ef7f7df0-de88-60cf-b977-99e46f2b464b" executionId="b5047c32-e419-427c-b039-3f5296b4b4b7" testListId="8c84fa94-04c1-424b-9868-57a2d4851a1d" />
    <TestEntry testId="fae19a73-99bd-53ac-f99f-381b85d84bbe" executionId="e495c7ba-eb7e-446a-beb9-03c76fdc5155" testListId="8c84fa94-04c1-424b-9868-57a2d4851a1d" />
  </TestEntries>
  <Results>
    <UnitTestResult executionId="d618c803-c40b-4acf-bc5f-a3d969cf652c" testId="030601f2-6b82-81cd-5884-3e11afc7d590" testName="ResourcesConstructorTest" computerName="DEVELOPMENT" duration="00:00:00.0352558" startTime="2016-02-27T21:24:45.4687500-08:00" endTime="2016-02-27T21:24:46.3593750-08:00" testType="13cdc9d9-ddb5-4fa4-a97d-d965ccfc6d4b" outcome="Passed" testListId="8c84fa94-04c1-424b-9868-57a2d4851a1d" relativeResultsDirectory="d618c803-c40b-4acf-bc5f-a3d969cf652c">
    </UnitTestResult>
    <UnitTestResult executionId="dcf05ff3-477d-40b2-a59a-f029e014c07e" testId="092c4f37-68ca-29b8-1f11-1ef46c55261c" testName="MainTest" computerName="DEVELOPMENT" duration="00:00:00.1338700" startTime="2016-02-27T21:24:46.3750000-08:00" endTime="2016-02-27T21:24:46.5312500-08:00" testType="13cdc9d9-ddb5-4fa4-a97d-d965ccfc6d4b" outcome="Passed" testListId="8c84fa94-04c1-424b-9868-57a2d4851a1d" relativeResultsDirectory="dcf05ff3-477d-40b2-a59a-f029e014c07e">
    </UnitTestResult>
    <UnitTestResult executionId="57f36e53-77fb-45b7-bbfd-15cac895b7c4" testId="0a8a974d-6f34-82cf-a7df-a6e81db3ddd5" testName="TeamNameTest" computerName="DEVELOPMENT" duration="00:00:00.0009557" startTime="2016-02-27T21:24:46.5468750-08:00" endTime="2016-02-27T21:24:46.5625000-08:00" testType="13cdc9d9-ddb5-4fa4-a97d-d965ccfc6d4b" outcome="Passed" testListId="8c84fa94-04c1-424b-9868-57a2d4851a1d" relativeResultsDirectory="57f36e53-77fb-45b7-bbfd-15cac895b7c4">
    </UnitTestResult>
    <UnitTestResult executionId="4b7721c2-720c-4318-96f9-42e5aa79ee4f" testId="2bda32e4-2fee-ecf7-0231-9ba9a2e662af" testName="ConnectTest" computerName="DEVELOPMENT" duration="00:00:00.1157608" startTime="2016-02-27T21:24:46.5937500-08:00" endTime="2016-02-27T21:24:46.7343750-08:00" testType="13cdc9d9-ddb5-4fa4-a97d-d965ccfc6d4b" outcome="Passed" testListId="8c84fa94-04c1-424b-9868-57a2d4851a1d" relativeResultsDirectory="4b7721c2-720c-4318-96f9-42e5aa79ee4f">
    </UnitTestResult>
    <UnitTestResult executionId="88c1af19-2ed8-4c3e-9225-c3268fd359fa" testId="2e36de62-9d42-8acc-0d83-87d9d1d8541f" testName="GoalsScoredAgainstTest" computerName="DEVELOPMENT" duration="00:00:00.0004824" startTime="2016-02-27T21:24:46.7500000-08:00" endTime="2016-02-27T21:24:46.7656250-08:00" testType="13cdc9d9-ddb5-4fa4-a97d-d965ccfc6d4b" outcome="Passed" testListId="8c84fa94-04c1-424b-9868-57a2d4851a1d" relativeResultsDirectory="88c1af19-2ed8-4c3e-9225-c3268fd359fa">
    </UnitTestResult>
    <UnitTestResult executionId="6f2a206e-9988-4345-8d97-ace0b7f26da2" testId="368fab1a-65bd-e24a-c993-455b0cbd7bd0" testName="SettingsConstructorTest" computerName="DEVELOPMENT" duration="00:00:00.0008350" startTime="2016-02-27T21:24:46.7968750-08:00" endTime="2016-02-27T21:24:46.8281250-08:00" testType="13cdc9d9-ddb5-4fa4-a97d-d965ccfc6d4b" outcome="Passed" testListId="8c84fa94-04c1-424b-9868-57a2d4851a1d" relativeResultsDirectory="6f2a206e-9988-4345-8d97-ace0b7f26da2">
    </UnitTestResult>
    <UnitTestResult executionId="914e05fa-73ae-4f8d-b814-a4ea9020b961" testId="36bd3582-cdf8-045a-d2d0-5769b83d42fd" testName="wpfFootBallExerciseConstructorTest" computerName="DEVELOPMENT" duration="00:00:00.0210965" startTime="2016-02-27T21:24:46.8437500-08:00" endTime="2016-02-27T21:24:46.8750000-08:00" testType="13cdc9d9-ddb5-4fa4-a97d-d965ccfc6d4b" outcome="Passed" testListId="8c84fa94-04c1-424b-9868-57a2d4851a1d" relativeResultsDirectory="914e05fa-73ae-4f8d-b814-a4ea9020b961">
    </UnitTestResult>
    <UnitTestResult executionId="cdfd2619-27d9-478a-914f-8e027c1760ae" testId="3da7db19-8cee-d201-d71e-f46bcae2fb27" testName="GoalScoredAgainstPropertyTest" computerName="DEVELOPMENT" duration="00:00:00.0237739" startTime="2016-02-27T21:24:46.8906250-08:00" endTime="2016-02-27T21:24:46.9218750-08:00" testType="13cdc9d9-ddb5-4fa4-a97d-d965ccfc6d4b" outcome="Passed" testListId="8c84fa94-04c1-424b-9868-57a2d4851a1d" relativeResultsDirectory="cdfd2619-27d9-478a-914f-8e027c1760ae">
    </UnitTestResult>
    <UnitTestResult executionId="9e4affc2-731b-4a0e-8be3-0c17f4eae76e" testId="440f63f4-3038-3a01-6ba8-082936f566f3" testName="ColumnExtractionRoutineTest" computerName="DEVELOPMENT" duration="00:00:00.0213775" startTime="2016-02-27T21:24:46.9531250-08:00" endTime="2016-02-27T21:24:46.9843750-08:00" testType="13cdc9d9-ddb5-4fa4-a97d-d965ccfc6d4b" outcome="Passed" testListId="8c84fa94-04c1-424b-9868-57a2d4851a1d" relativeResultsDirectory="9e4affc2-731b-4a0e-8be3-0c17f4eae76e">
    </UnitTestResult>
    <UnitTestResult executionId="9666c1f9-b846-4ff4-8f02-7aed6a2cd5c5" testId="52845a88-16e2-1b0e-960f-006ca2de93f2" testName="DifferenceGoalsScoredForAgainstTest" computerName="DEVELOPMENT" duration="00:00:00.0063712" startTime="2016-02-27T21:24:47.1093750-08:00" endTime="2016-02-27T21:24:47.1250000-08:00" testType="13cdc9d9-ddb5-4fa4-a97d-d965ccfc6d4b" outcome="Passed" testListId="8c84fa94-04c1-424b-9868-57a2d4851a1d" relativeResultsDirectory="9666c1f9-b846-4ff4-8f02-7aed6a2cd5c5">
    </UnitTestResult>
    <UnitTestResult executionId="e24a9761-7980-435e-a7dd-7465dcd3f339" testId="5edf6a9f-50d8-1f37-9cdc-741dbf1daaa0" testName="TeamNamePropertyTest" computerName="DEVELOPMENT" duration="00:00:00.0192326" startTime="2016-02-27T21:24:47.1562500-08:00" endTime="2016-02-27T21:24:47.2031250-08:00" testType="13cdc9d9-ddb5-4fa4-a97d-d965ccfc6d4b" outcome="Passed" testListId="8c84fa94-04c1-424b-9868-57a2d4851a1d" relativeResultsDirectory="e24a9761-7980-435e-a7dd-7465dcd3f339">
    </UnitTestResult>
    <UnitTestResult executionId="8c9853af-0199-4c80-acce-7f464128a9f3" testId="69194a15-7526-c60b-3a55-b286429c507a" testName="ErrorMessagePropertyTest" computerName="DEVELOPMENT" duration="00:00:00.0173591" startTime="2016-02-27T21:24:47.2187500-08:00" endTime="2016-02-27T21:24:47.2500000-08:00" testType="13cdc9d9-ddb5-4fa4-a97d-d965ccfc6d4b" outcome="Passed" testListId="8c84fa94-04c1-424b-9868-57a2d4851a1d" relativeResultsDirectory="8c9853af-0199-4c80-acce-7f464128a9f3">
    </UnitTestResult>
    <UnitTestResult executionId="0c857605-ea62-4f3e-bd00-ecb98baf4f21" testId="6ddc06d6-b1a4-36f3-9958-dece23e8f9af" testName="CalculateTeamWithSmallestDifferenceTest" computerName="DEVELOPMENT" duration="00:00:00.0239323" startTime="2016-02-27T21:24:47.2656250-08:00" endTime="2016-02-27T21:24:47.3125000-08:00" testType="13cdc9d9-ddb5-4fa4-a97d-d965ccfc6d4b" outcome="Passed" testListId="8c84fa94-04c1-424b-9868-57a2d4851a1d" relativeResultsDirectory="0c857605-ea62-4f3e-bd00-ecb98baf4f21">
    </UnitTestResult>
    <UnitTestResult executionId="f8cf7ae0-51d8-4b91-a050-89796962815f" testId="799f2608-69b6-7bce-689e-e97e25033d5f" testName="AppConstructorTest" computerName="DEVELOPMENT" duration="00:00:15.0156250" startTime="2016-02-27T21:24:47.3281250-08:00" endTime="2016-02-27T21:25:02.3437500-08:00" testType="13cdc9d9-ddb5-4fa4-a97d-d965ccfc6d4b" outcome="Aborted" testListId="8c84fa94-04c1-424b-9868-57a2d4851a1d" relativeResultsDirectory="f8cf7ae0-51d8-4b91-a050-89796962815f">
    </UnitTestResult>
    <UnitTestResult executionId="654dbbaa-fb6a-4caf-9e47-9cd486acac5f" testId="7c9a03ac-d198-e8dd-f833-b9d3a55858dd" testName="GoalsScoredForTest" computerName="DEVELOPMENT" testType="13cdc9d9-ddb5-4fa4-a97d-d965ccfc6d4b" outcome="NotExecuted" testListId="8c84fa94-04c1-424b-9868-57a2d4851a1d" relativeResultsDirectory="654dbbaa-fb6a-4caf-9e47-9cd486acac5f">
    </UnitTestResult>
    <UnitTestResult executionId="d56fc403-edfe-43d2-a094-44677e88eaba" testId="8f4ca596-9c19-5b6e-6cf5-8879fec1f8f3" testName="DefaultTest" computerName="DEVELOPMENT" testType="13cdc9d9-ddb5-4fa4-a97d-d965ccfc6d4b" outcome="NotExecuted" testListId="8c84fa94-04c1-424b-9868-57a2d4851a1d" relativeResultsDirectory="d56fc403-edfe-43d2-a094-44677e88eaba">
    </UnitTestResult>
    <UnitTestResult executionId="dc4a5465-efb2-49f0-a5d3-4b9e1e292bfe" testId="a43d1f53-7027-f6d8-4a6b-8f3c9a0093d0" testName="InitializeComponentTest" computerName="DEVELOPMENT" testType="13cdc9d9-ddb5-4fa4-a97d-d965ccfc6d4b" outcome="NotExecuted" testListId="8c84fa94-04c1-424b-9868-57a2d4851a1d" relativeResultsDirectory="dc4a5465-efb2-49f0-a5d3-4b9e1e292bfe">
    </UnitTestResult>
    <UnitTestResult executionId="f4fc8771-76a0-4292-a703-95fab3d58071" testId="a6e177b9-cbef-4dfd-838b-bf97d961f6f2" testName="FootballExerciseViewModelConstructorTest" computerName="DEVELOPMENT" testType="13cdc9d9-ddb5-4fa4-a97d-d965ccfc6d4b" outcome="NotExecuted" testListId="8c84fa94-04c1-424b-9868-57a2d4851a1d" relativeResultsDirectory="f4fc8771-76a0-4292-a703-95fab3d58071">
    </UnitTestResult>
    <UnitTestResult executionId="35584880-be0c-422f-94c2-db0ea7d35b2f" testId="a895df82-463a-a2b6-ad8b-a274c9067848" testName="CultureTest" computerName="DEVELOPMENT" testType="13cdc9d9-ddb5-4fa4-a97d-d965ccfc6d4b" outcome="NotExecuted" testListId="8c84fa94-04c1-424b-9868-57a2d4851a1d" relativeResultsDirectory="35584880-be0c-422f-94c2-db0ea7d35b2f">
    </UnitTestResult>
    <UnitTestResult executionId="1f08ad43-a97a-49f3-9177-9ef7315dc6fc" testId="afda17c4-c99c-928d-34dd-80a6c20cf545" testName="SelectTest" computerName="DEVELOPMENT" testType="13cdc9d9-ddb5-4fa4-a97d-d965ccfc6d4b" outcome="NotExecuted" testListId="8c84fa94-04c1-424b-9868-57a2d4851a1d" relativeResultsDirectory="1f08ad43-a97a-49f3-9177-9ef7315dc6fc">
    </UnitTestResult>
    <UnitTestResult executionId="392219b9-f540-4bcb-80f4-9f3da8cf16d8" testId="b5bfeebf-ac24-dcdc-8fce-2cae040ddc1d" testName="RepositoryConstructorTest" computerName="DEVELOPMENT" testType="13cdc9d9-ddb5-4fa4-a97d-d965ccfc6d4b" outcome="NotExecuted" testListId="8c84fa94-04c1-424b-9868-57a2d4851a1d" relativeResultsDirectory="392219b9-f540-4bcb-80f4-9f3da8cf16d8">
    </UnitTestResult>
    <UnitTestResult executionId="9047c2b4-0ee0-4365-871d-df7818ad317d" testId="b708243d-5ab6-27ce-3048-8917d087e2a9" testName="InitializeComponentTest" computerName="DEVELOPMENT" testType="13cdc9d9-ddb5-4fa4-a97d-d965ccfc6d4b" outcome="NotExecuted" testListId="8c84fa94-04c1-424b-9868-57a2d4851a1d" relativeResultsDirectory="9047c2b4-0ee0-4365-871d-df7818ad317d">
    </UnitTestResult>
    <UnitTestResult executionId="6a7b38e3-f02c-476b-bff4-72719a04046b" testId="c6f01cab-5280-79a0-ebb0-29985c551eea" testName="GoalScoredForPropertyTest" computerName="DEVELOPMENT" testType="13cdc9d9-ddb5-4fa4-a97d-d965ccfc6d4b" outcome="NotExecuted" testListId="8c84fa94-04c1-424b-9868-57a2d4851a1d" relativeResultsDirectory="6a7b38e3-f02c-476b-bff4-72719a04046b">
    </UnitTestResult>
    <UnitTestResult executionId="f48ce413-2968-44c1-b3d1-6d53aed2a914" testId="cc86a5cd-42a8-b592-0036-a3731d20e030" testName="IsOpenPropertyTest" computerName="DEVELOPMENT" testType="13cdc9d9-ddb5-4fa4-a97d-d965ccfc6d4b" outcome="NotExecuted" testListId="8c84fa94-04c1-424b-9868-57a2d4851a1d" relativeResultsDirectory="f48ce413-2968-44c1-b3d1-6d53aed2a914">
    </UnitTestResult>
    <UnitTestResult executionId="00f64dcc-b110-47f1-9af4-971def46f3e9" testId="e2877cf9-fedc-e307-0f16-ace1a1a36ba1" testName="ResourceManagerTest" computerName="DEVELOPMENT" testType="13cdc9d9-ddb5-4fa4-a97d-d965ccfc6d4b" outcome="NotExecuted" testListId="8c84fa94-04c1-424b-9868-57a2d4851a1d" relativeResultsDirectory="00f64dcc-b110-47f1-9af4-971def46f3e9">
    </UnitTestResult>
    <UnitTestResult executionId="b5047c32-e419-427c-b039-3f5296b4b4b7" testId="ef7f7df0-de88-60cf-b977-99e46f2b464b" testName="FootBallModelConstructorTest" computerName="DEVELOPMENT" testType="13cdc9d9-ddb5-4fa4-a97d-d965ccfc6d4b" outcome="NotExecuted" testListId="8c84fa94-04c1-424b-9868-57a2d4851a1d" relativeResultsDirectory="b5047c32-e419-427c-b039-3f5296b4b4b7">
    </UnitTestResult>
    <UnitTestResult executionId="e495c7ba-eb7e-446a-beb9-03c76fdc5155" testId="fae19a73-99bd-53ac-f99f-381b85d84bbe" testName="DifferencePropertyTest" computerName="DEVELOPMENT" testType="13cdc9d9-ddb5-4fa4-a97d-d965ccfc6d4b" outcome="NotExecuted" testListId="8c84fa94-04c1-424b-9868-57a2d4851a1d" relativeResultsDirectory="e495c7ba-eb7e-446a-beb9-03c76fdc5155">
    </UnitTestResult>
  </Results>
</TestRun>