﻿<?xml version="1.0" encoding="UTF-8"?>
<TestRun id="b44861f5-7070-4552-9fbf-3c686e15b459" name="Admin@DEVELOPMENT 2016-02-27 21:17:52" runUser="DEVELOPMENT\Admin" xmlns="http://microsoft.com/schemas/VisualStudio/TeamTest/2010">
  <TestSettings name="Local" id="1d6239b9-3725-4107-9802-b3e02f79ef3e">
    <Description>These are default test settings for a local test run.</Description>
    <Deployment userDeploymentRoot="C:\WpfFootballExercise\TestResults" useDefaultDeploymentRoot="false" enabled="false" runDeploymentRoot="Admin_DEVELOPMENT 2016-02-27 21_17_52">
      <DeploymentItem filename="C:\WpfFootballExercise\WpfFootballExercise\bin\Release\WpfFootballExercise.exe" />
    </Deployment>
    <Execution>
      <TestTypeSpecific />
      <AgentRule name="Execution Agents">
      </AgentRule>
    </Execution>
  </TestSettings>
  <Times creation="2016-02-27T21:17:52.3125000-08:00" queuing="2016-02-27T21:17:52.5937500-08:00" start="2016-02-27T21:17:52.7031250-08:00" finish="2016-02-27T21:17:53.3593750-08:00" />
  <ResultSummary outcome="Inconclusive">
    <Counters total="2" executed="2" passed="1" error="0" failed="0" timeout="0" aborted="0" inconclusive="1" passedButRunAborted="0" notRunnable="0" notExecuted="0" disconnected="0" warning="0" completed="0" inProgress="0" pending="0" />
  </ResultSummary>
  <TestDefinitions>
    <UnitTest name="ResourceManagerTest" storage="c:\wpffootballexercise\wpffootballexercise_testproject\bin\release\wpffootballexercise_testproject.dll" id="e2877cf9-fedc-e307-0f16-ace1a1a36ba1">
      <Execution id="19ba756b-fa14-457b-8710-b51680687704" />
      <TestMethod codeBase="C:/WpfFootballExercise/WpfFootballExercise_TestProject/bin/Release/WpfFootballExercise_TestProject.DLL" adapterTypeName="Microsoft.VisualStudio.TestTools.TestTypes.Unit.UnitTestAdapter, Microsoft.VisualStudio.QualityTools.Tips.UnitTest.Adapter, Version=10.0.0.0, Culture=neutral, PublicKeyToken=b03f5f7f11d50a3a" className="WpfFootballExercise_TestProject.ResourcesTest, WpfFootballExercise_TestProject, Version=1.0.0.0, Culture=neutral, PublicKeyToken=null" name="ResourceManagerTest" />
    </UnitTest>
    <UnitTest name="AppConstructorTest" storage="c:\wpffootballexercise\wpffootballexercise_testproject\bin\release\wpffootballexercise_testproject.dll" id="799f2608-69b6-7bce-689e-e97e25033d5f">
      <Execution id="f30b23d5-fec2-44e8-a3d0-820f884b0369" />
      <TestMethod codeBase="C:/WpfFootballExercise/WpfFootballExercise_TestProject/bin/Release/WpfFootballExercise_TestProject.DLL" adapterTypeName="Microsoft.VisualStudio.TestTools.TestTypes.Unit.UnitTestAdapter, Microsoft.VisualStudio.QualityTools.Tips.UnitTest.Adapter, Version=10.0.0.0, Culture=neutral, PublicKeyToken=b03f5f7f11d50a3a" className="WpfFootballExercise_TestProject.AppTest, WpfFootballExercise_TestProject, Version=1.0.0.0, Culture=neutral, PublicKeyToken=null" name="AppConstructorTest" />
    </UnitTest>
  </TestDefinitions>
  <TestLists>
    <TestList name="Results Not in a List" id="8c84fa94-04c1-424b-9868-57a2d4851a1d" />
    <TestList name="All Loaded Results" id="19431567-8539-422a-85d7-44ee4e166bda" />
  </TestLists>
  <TestEntries>
    <TestEntry testId="799f2608-69b6-7bce-689e-e97e25033d5f" executionId="f30b23d5-fec2-44e8-a3d0-820f884b0369" testListId="8c84fa94-04c1-424b-9868-57a2d4851a1d" />
    <TestEntry testId="e2877cf9-fedc-e307-0f16-ace1a1a36ba1" executionId="19ba756b-fa14-457b-8710-b51680687704" testListId="8c84fa94-04c1-424b-9868-57a2d4851a1d" />
  </TestEntries>
  <Results>
    <UnitTestResult executionId="f30b23d5-fec2-44e8-a3d0-820f884b0369" testId="799f2608-69b6-7bce-689e-e97e25033d5f" testName="AppConstructorTest" computerName="DEVELOPMENT" duration="00:00:00.0346546" startTime="2016-02-27T21:17:52.7656250-08:00" endTime="2016-02-27T21:17:53.2343750-08:00" testType="13cdc9d9-ddb5-4fa4-a97d-d965ccfc6d4b" outcome="Passed" testListId="8c84fa94-04c1-424b-9868-57a2d4851a1d" relativeResultsDirectory="f30b23d5-fec2-44e8-a3d0-820f884b0369">
    </UnitTestResult>
    <UnitTestResult executionId="19ba756b-fa14-457b-8710-b51680687704" testId="e2877cf9-fedc-e307-0f16-ace1a1a36ba1" testName="ResourceManagerTest" computerName="DEVELOPMENT" duration="00:00:00.0112676" startTime="2016-02-27T21:17:53.2343750-08:00" endTime="2016-02-27T21:17:53.2500000-08:00" testType="13cdc9d9-ddb5-4fa4-a97d-d965ccfc6d4b" outcome="Inconclusive" testListId="8c84fa94-04c1-424b-9868-57a2d4851a1d" relativeResultsDirectory="19ba756b-fa14-457b-8710-b51680687704">
      <Output>
        <ErrorInfo>
          <Message>Assert.Inconclusive failed. Verify the correctness of this test method.</Message>
          <StackTrace>   at WpfFootballExercise_TestProject.ResourcesTest.ResourceManagerTest() in C:\WpfFootballExercise\WpfFootballExercise_TestProject\ResourcesTest.cs:line 111
</StackTrace>
        </ErrorInfo>
      </Output>
    </UnitTestResult>
  </Results>
</TestRun>